{
  "organization_job_postings": [
    {
      "id": "6a2be59105b4330001221b72",
      "title": "Material Handling System Supervisor (MHS) (Underground) - Carrapateena - FIFO 1",
      "url": "https://au.linkedin.com/jobs/view/material-handling-system-supervisor-mhs-underground-carrapateena-fifo-1-at-bhp-4424864132",
      "city": "Adelaide",
      "state": "South Australia",
      "country": "Australia",
      "last_seen_at": "2026-06-12T10:55:13.571+00:00",
      "posted_at": "2026-06-12T08:55:13.571+00:00"
    },
    {
      "id": "6a2be2fdd6e6a100012f1865",
      "title": "Integrated Planner - Training & Performance | FFA | Operations Services",
      "url": "https://au.linkedin.com/jobs/view/integrated-planner-training-performance-ffa-operations-services-at-bhp-4424857935",
      "city": "Perth",
      "state": "Western Australia",
      "country": "Australia",
      "last_seen_at": "2026-06-12T10:44:13.071+00:00",
      "posted_at": "2026-06-12T08:44:13.071+00:00"
    },
    {
      "id": "6a2cca165c40f00001559266",
      "title": "Principal Research Engineer - Digital - Brisbane",
      "url": "https://careers.bhp.com/job/Principal-Research-Engineer-Digital-Brisbane/1399275000",
      "city": "Brisbane",
      "state": "Queensland",
      "country": "Australia",
      "last_seen_at": "2026-06-12T16:13:00.000+00:00",
      "posted_at": "2026-06-11T22:00:00.000+00:00"
    },
    {
      "id": "6a2a904fadd2ad0001944ac4",
      "title": "Operator Dispatch | Mt Arthur Coal | NSWEC",
      "url": "https://au.linkedin.com/jobs/view/operator-dispatch-mt-arthur-coal-nswec-at-bhp-4423635332",
      "city": "Perth",
      "state": "Western Australia",
      "country": "Australia",
      "last_seen_at": "2026-06-11T10:39:11.141+00:00",
      "posted_at": "2026-06-11T08:39:11.141+00:00"
    },
    {
      "id": "6a2a8fd5f4b7510001909b19",
      "title": "Copper SA Indigenous Apprentice Program 2027 Intake",
      "url": "https://au.linkedin.com/jobs/view/copper-sa-indigenous-apprentice-program-2027-intake-at-bhp-4423638067",
      "city": "Adelaide",
      "state": "South Australia",
      "country": "Australia",
      "last_seen_at": "2026-06-11T10:37:08.544+00:00",
      "posted_at": "2026-06-11T08:37:08.544+00:00"
    },
    {
      "id": "6a2a8fd414807800012d5ff2",
      "title": "Copper SA Apprentice Program 2027 Intake",
      "url": "https://au.linkedin.com/jobs/view/copper-sa-apprentice-program-2027-intake-at-bhp-4423621496",
      "city": "Brisbane",
      "state": "Queensland",
      "country": "Australia",
      "last_seen_at": "2026-06-11T10:37:08.072+00:00",
      "posted_at": "2026-06-11T08:37:08.072+00:00"
    },
    {
      "id": "6a2a8fd414807800012d5ff3",
      "title": "Copper SA Apprentice Program 2027 Intake",
      "url": "https://au.linkedin.com/jobs/view/copper-sa-apprentice-program-2027-intake-at-bhp-4423630409",
      "city": "Adelaide",
      "state": "South Australia",
      "country": "Australia",
      "last_seen_at": "2026-06-11T10:37:08.072+00:00",
      "posted_at": "2026-06-11T08:37:08.072+00:00"
    },
    {
      "id": "6a2a8fd414807800012d5ff5",
      "title": "Copper SA Apprentice Program 2027 Intake",
      "url": "https://au.linkedin.com/jobs/view/copper-sa-apprentice-program-2027-intake-at-bhp-4423624525",
      "city": "Melbourne",
      "state": "Victoria",
      "country": "Australia",
      "last_seen_at": "2026-06-11T10:37:08.071+00:00",
      "posted_at": "2026-06-11T08:37:08.071+00:00"
    },
    {
      "id": "6a2b89b778edc700014c47f8",
      "title": "Specialist Operational Readiness, Copper South Australia Major Projects - Adelaide",
      "url": "https://careers.bhp.com/job/Specialist-Operational-Readiness%2C-Copper-South-Australia-Major-Projects-Adelaide/1398822900",
      "city": "Adelaide",
      "state": "South Australia",
      "country": "Australia",
      "last_seen_at": "2026-06-12T16:13:00.000+00:00",
      "posted_at": "2026-06-10T22:00:00.000+00:00"
    },
    {
      "id": "6a2b8267f4aa79000198a099",
      "title": "Operator Dispatch | Mt Arthur Coal | NSWEC",
      "url": "https://careers.bhp.com/job/Operator-Dispatch-Mt-Arthur-Coal-NSWEC/1398799800",
      "city": "Muswellbrook",
      "state": "New South Wales",
      "country": "Australia",
      "last_seen_at": "2026-06-12T16:13:00.000+00:00",
      "posted_at": "2026-06-10T22:00:00.000+00:00"
    },
    {
      "id": "6a2b89e21b49ce0001230737",
      "title": "Supervisor Development OT Site Operation",
      "url": "https://careers.bhp.com/job/Supervisor-Development-OT-Site-Operation/1398799300",
      "city": "Bowen",
      "state": "Queensland",
      "country": "Australia",
      "last_seen_at": "2026-06-12T16:13:00.000+00:00",
      "posted_at": "2026-06-10T22:00:00.000+00:00"
    },
    {
      "id": "6a2b778790fe630001d9d413",
      "title": "Copper SA Apprentice Program 2027 Intake",
      "url": "https://careers.bhp.com/job/Copper-SA-Apprentice-Program-2027-Intake/1398809400",
      "city": "Sydney",
      "state": "New South Wales",
      "country": "Australia",
      "last_seen_at": "2026-06-12T16:13:00.000+00:00",
      "posted_at": "2026-06-10T22:00:00.000+00:00"
    },
    {
      "id": "6a2cde5b3889980001d2f6cd",
      "title": "Principal Product Owner",
      "url": "https://careers.bhp.com/job/Principal-Product-Owner/1399147800",
      "city": "Saskatoon",
      "state": "Saskatchewan",
      "country": "Canada",
      "last_seen_at": "2026-06-12T16:13:00.000+00:00",
      "posted_at": "2026-06-10T22:00:00.000+00:00"
    },
    {
      "id": "6a2b8a9ab086cb00013b53c1",
      "title": "Automation Specialist - Port Production Laboratory | Port Hedland | Residential or FIFO 5:2 4:3",
      "url": "https://careers.bhp.com/job/Automation-Specialist-Port-Production-Laboratory-Port-Hedland-Residential-or-FIFO-52-43/1398807800",
      "city": "Port Hedland",
      "state": "Western Australia",
      "country": "Australia",
      "last_seen_at": "2026-06-12T16:13:00.000+00:00",
      "posted_at": "2026-06-10T22:00:00.000+00:00"
    },
    {
      "id": "6a2cda355a261a000132efcd",
      "title": "Lead Planner",
      "url": "https://careers.bhp.com/job/Lead-Planner/1399130200",
      "city": "Saskatoon",
      "state": "Saskatchewan",
      "country": "Canada",
      "last_seen_at": "2026-06-12T16:13:00.000+00:00",
      "posted_at": "2026-06-10T22:00:00.000+00:00"
    },
    {
      "id": "6a2b78bb78edc700014c0b94",
      "title": "Copper SA Indigenous Apprentice Program 2027 Intake",
      "url": "https://careers.bhp.com/job/Copper-SA-Indigenous-Apprentice-Program-2027-Intake/1398811000",
      "city": "Sydney",
      "state": "New South Wales",
      "country": "Australia",
      "last_seen_at": "2026-06-12T16:13:00.000+00:00",
      "posted_at": "2026-06-10T22:00:00.000+00:00"
    },
    {
      "id": "6a294adabe3ea30001b2c03a",
      "title": "Productions Operators | Peak Downs | Production East",
      "url": "https://au.linkedin.com/jobs/view/productions-operators-peak-downs-production-east-at-bhp-4423116419",
      "city": "Melbourne",
      "state": "Victoria",
      "country": "Australia",
      "last_seen_at": "2026-06-10T11:30:34.058+00:00",
      "posted_at": "2026-06-10T09:30:34.058+00:00"
    },
    {
      "id": "6a295725dae87100012278b6",
      "title": "Productions Operators | Peak Downs | Production East",
      "url": "https://au.linkedin.com/jobs/view/productions-operators-peak-downs-production-east-at-bhp-4422796814",
      "city": "Adelaide",
      "state": "South Australia",
      "country": "Australia",
      "last_seen_at": "2026-06-10T12:23:01.015+00:00",
      "posted_at": "2026-06-10T09:23:01.015+00:00"
    },
    {
      "id": "6a294cbea56139000163e420",
      "title": "Productions Operators | Peak Downs | Production East",
      "url": "https://au.linkedin.com/jobs/view/productions-operators-peak-downs-production-east-at-bhp-4423106644",
      "city": "Perth",
      "state": "Western Australia",
      "country": "Australia",
      "last_seen_at": "2026-06-10T11:38:38.765+00:00",
      "posted_at": "2026-06-10T08:38:38.765+00:00"
    },
    {
      "id": "6a29571eb901550001fd8855",
      "title": "Multi-Skilled Mobile Plant Operator | Underground | Olympid Dam 7/7 DN",
      "url": "https://au.linkedin.com/jobs/view/multi-skilled-mobile-plant-operator-underground-olympid-dam-7-7-dn-at-bhp-4426701285",
      "city": "Olympic Dam",
      "state": "South Australia",
      "country": "Australia",
      "last_seen_at": "2026-06-10T12:22:54.466+00:00",
      "posted_at": "2026-06-10T03:22:54.466+00:00"
    },
    {
      "id": "6a2b90dab086cb00013b73ee",
      "title": "Principal Indigenous Engagement | South Australia | Indigenous Candidates only",
      "url": "https://careers.bhp.com/job/Principal-Indigenous-Engagement-South-Australia-Indigenous-Candidates-only/1398779400",
      "city": "Sydney",
      "state": "New South Wales",
      "country": "Australia",
      "last_seen_at": "2026-06-12T16:13:00.000+00:00",
      "posted_at": "2026-06-09T22:00:00.000+00:00"
    },
    {
      "id": "6a2a2b3acd909e000158df03",
      "title": "Principal Mine Planning - Resource Centre of Excellence | Perth, Brisbane & Adelaide",
      "url": "https://careers.bhp.com/job/Principal-Mine-Planning-Resource-Centre-of-Excellence-Perth%2C-Brisbane-&-Adelaide/1398350800",
      "city": "Perth",
      "state": "Western Australia",
      "country": "Australia",
      "last_seen_at": "2026-06-12T16:13:00.000+00:00",
      "posted_at": "2026-06-09T22:00:00.000+00:00"
    },
    {
      "id": "6a2b7d05b086cb00013b0ca5",
      "title": "Principal Commissioning",
      "url": "https://careers.bhp.com/job/Principal-Commissioning/1398779500",
      "city": "Adelaide",
      "state": "South Australia",
      "country": "Australia",
      "last_seen_at": "2026-06-12T16:13:00.000+00:00",
      "posted_at": "2026-06-09T22:00:00.000+00:00"
    },
    {
      "id": "6a2a25d0e2d435000115f588",
      "title": "Productions Operators | Peak Downs | Production East",
      "url": "https://careers.bhp.com/job/Productions-Operators-Peak-Downs-Production-East/1398357000",
      "city": null,
      "state": null,
      "country": "New Zealand",
      "last_seen_at": "2026-06-12T16:39:10.000+00:00",
      "posted_at": "2026-06-09T22:00:00.000+00:00"
    },
    {
      "id": "6a2a2c18c229a60001b6fcd4",
      "title": "Specialist Community | Fixed Term | Australia",
      "url": "https://careers.bhp.com/job/Specialist-Community-Fixed-Term-Australia/1398344000",
      "city": "Port Hedland",
      "state": "Western Australia",
      "country": "Australia",
      "last_seen_at": "2026-06-12T16:13:00.000+00:00",
      "posted_at": "2026-06-09T22:00:00.000+00:00"
    }
  ],
  "pagination": {
    "page": 1,
    "per_page": 25,
    "total_entries": 198,
    "total_pages": 8
  }
}