{
  "organization_job_postings": [
    {
      "id": "6a2ccb777b50b60001769a9c",
      "title": "Senior Associate/AVP, Sales & Advisory, Global Financial Markets",
      "url": "https://dbs.wd3.myworkdayjobs.com/en-US/DBS_Careers/job/Singapore---Central/Senior-Associate-AVP--Sales---Advisory--Global-Financial-Markets_WD85563",
      "city": "Singapore",
      "state": "Singapore",
      "country": "Singapore",
      "last_seen_at": "2026-06-12T17:37:59.000+00:00",
      "posted_at": "2026-06-11T22:00:00.000+00:00"
    },
    {
      "id": "6a2cd1047b50b6000176e435",
      "title": "Senior Associate, Legal Litigation, Group Legal, Compliance, and Secretariat",
      "url": "https://dbs.wd3.myworkdayjobs.com/en-US/DBS_Careers/job/Jakarta-Head-Office/Senior-Associate--Legal-Litigation--Group-Legal--Compliance--and-Secretariat_WD85577",
      "city": "Jakarta",
      "state": "Jakarta",
      "country": "Indonesia",
      "last_seen_at": "2026-06-12T18:13:43.000+00:00",
      "posted_at": "2026-06-11T22:00:00.000+00:00"
    },
    {
      "id": "6a2cd255c7e3ba000139d774",
      "title": "SNROFFCR, Specialist, Operations, Loan Operations-Administration, Corporate Banking (BL0066)",
      "url": "https://dbs.wd3.myworkdayjobs.com/en-US/DBS_Careers/job/Taipei/SNROFFCR--Specialist--Operations--Loan-Operations-Administration--Corporate-Banking--BL0066-_WD85188",
      "city": "Taipei",
      "state": "New Taipei City",
      "country": "Taiwan",
      "last_seen_at": "2026-06-12T17:37:59.000+00:00",
      "posted_at": "2026-06-11T22:00:00.000+00:00"
    },
    {
      "id": "6a2cd092777199000113db47",
      "title": "Treasures Elite, Consumer Banking Group",
      "url": "https://dbs.wd3.myworkdayjobs.com/en-US/DBS_Careers/job/One-Island-East/Treasures-Elite--Consumer-Banking-Group_WD85488",
      "city": "Hong Kong",
      "state": null,
      "country": "Hong Kong",
      "last_seen_at": "2026-06-12T18:17:07.000+00:00",
      "posted_at": "2026-06-11T22:00:00.000+00:00"
    },
    {
      "id": "6a2cc9ef3c48dc0001d5a21d",
      "title": "AVP, Financial Reporting & Accounting",
      "url": "https://dbs.wd3.myworkdayjobs.com/en-US/DBS_Careers/job/One-Island-East/AVP--Financial-Reporting---Accounting_WD85584",
      "city": "Hong Kong",
      "state": null,
      "country": "Hong Kong",
      "last_seen_at": "2026-06-12T18:14:12.000+00:00",
      "posted_at": "2026-06-11T22:00:00.000+00:00"
    },
    {
      "id": "6a2cd3987b50b6000177045c",
      "title": "Officer, Customer Service Officer, Consumer Banking Group",
      "url": "https://dbs.wd3.myworkdayjobs.com/en-US/DBS_Careers/job/Cantonment-Bengaluru/Officer--Customer-Service-Officer--Consumer-Banking-Group_WD85392",
      "city": null,
      "state": null,
      "country": "India",
      "last_seen_at": "2026-06-12T18:17:18.000+00:00",
      "posted_at": "2026-06-11T22:00:00.000+00:00"
    },
    {
      "id": "6a2cd4033c48dc0001d6197d",
      "title": "Assistant Officer, Personal Banker, Consumer Banking Group",
      "url": "https://dbs.wd3.myworkdayjobs.com/en-US/DBS_Careers/job/Pollachi/Assistant-Officer--Personal-Banker--Consumer-Banking-Group_WD85567",
      "city": null,
      "state": null,
      "country": "India",
      "last_seen_at": "2026-06-12T18:19:36.000+00:00",
      "posted_at": "2026-06-11T22:00:00.000+00:00"
    },
    {
      "id": "6a2cc8a8236006000128b0c5",
      "title": "AVP, Treasures RM, Consumer Banking Group",
      "url": "https://dbs.wd3.myworkdayjobs.com/en-US/DBS_Careers/job/One-Island-East/AVP--Treasures-RM--Consumer-Banking-Group_WD85223",
      "city": "Hong Kong",
      "state": null,
      "country": "Hong Kong",
      "last_seen_at": "2026-06-12T18:13:44.000+00:00",
      "posted_at": "2026-06-11T22:00:00.000+00:00"
    },
    {
      "id": "6a2cc9703c48dc0001d59b97",
      "title": "Corporate Sales & Solutioning Manager, Commodity (AVP-VP)",
      "url": "https://dbs.wd3.myworkdayjobs.com/en-US/DBS_Careers/job/Shanghai/Corporate-Sales---Solutioning-Manager--Commodity--AVP-VP-_WD85476",
      "city": "Shanghai",
      "state": "Shanghai",
      "country": "China",
      "last_seen_at": "2026-06-12T18:14:03.000+00:00",
      "posted_at": "2026-06-11T22:00:00.000+00:00"
    },
    {
      "id": "6a2cd9f011c3fc000131a388",
      "title": "Officer, Customer Service Officer, Consumer Banking Group",
      "url": "https://dbs.wd3.myworkdayjobs.com/en-US/DBS_Careers/job/Gobichettipalayam/Officer--Customer-Service-Officer--Consumer-Banking-Group_WD85368",
      "city": null,
      "state": null,
      "country": "India",
      "last_seen_at": "2026-06-12T18:17:19.000+00:00",
      "posted_at": "2026-06-11T22:00:00.000+00:00"
    },
    {
      "id": "6a2ccc2a5c40f0000155adb9",
      "title": "Officer, Customer Service Officer, Consumer Banking Group",
      "url": "https://dbs.wd3.myworkdayjobs.com/en-US/DBS_Careers/job/Palani/Officer--Customer-Service-Officer--Consumer-Banking-Group_WD85385",
      "city": null,
      "state": null,
      "country": "India",
      "last_seen_at": "2026-06-12T18:17:16.000+00:00",
      "posted_at": "2026-06-11T22:00:00.000+00:00"
    },
    {
      "id": "6a2ccf797b50b6000176d109",
      "title": "AVP/Sr. Assoc, Network Engineer, Group Infrastructure & Cloud, Group Technology",
      "url": "https://dbs.wd3.myworkdayjobs.com/en-US/DBS_Careers/job/Singapore---East/Network-Infrastructure-Specialist_WD85484-1",
      "city": "Singapore",
      "state": "Singapore",
      "country": "Singapore",
      "last_seen_at": "2026-06-12T17:33:26.000+00:00",
      "posted_at": "2026-06-11T22:00:00.000+00:00"
    },
    {
      "id": "6a2cdb7ab9743a000167005f",
      "title": "Officer, Branch Relationship Manager, Consumer Banking Group",
      "url": "https://dbs.wd3.myworkdayjobs.com/en-US/DBS_Careers/job/Royapuram-Chennai/Officer--Branch-Relationship-Manager--Consumer-Banking-Group_WD85472-1",
      "city": "Chennai",
      "state": "Tamil Nadu",
      "country": "India",
      "last_seen_at": "2026-06-12T18:17:55.000+00:00",
      "posted_at": "2026-06-11T22:00:00.000+00:00"
    },
    {
      "id": "6a2cde1d5a261a000133209f",
      "title": "AVP, RM, Cross Industry, Corporate Banking, Institutional Banking Group",
      "url": "https://dbs.wd3.myworkdayjobs.com/en-US/DBS_Careers/job/Jakarta-Selatan/AVP--RM--Cross-Industry--Corporate-Banking--Institutional-Banking-Group_WD85465",
      "city": "Jakarta",
      "state": "Jakarta",
      "country": "Indonesia",
      "last_seen_at": "2026-06-12T17:37:59.000+00:00",
      "posted_at": "2026-06-11T22:00:00.000+00:00"
    },
    {
      "id": "6a2ccace236006000128ca7d",
      "title": "Assistant Officer, Personal Banker, Consumer Banking Group",
      "url": "https://dbs.wd3.myworkdayjobs.com/en-US/DBS_Careers/job/Salem-CKSTREET/Assistant-Officer--Personal-Banker--Consumer-Banking-Group_WD85240",
      "city": "Salem",
      "state": "Tamil Nadu",
      "country": "India",
      "last_seen_at": "2026-06-12T17:38:12.000+00:00",
      "posted_at": "2026-06-11T22:00:00.000+00:00"
    },
    {
      "id": "6a2cd55b37ba390001c504da",
      "title": "Senior Vice President, Head of Cash Operations, Institution Banking Group Operations",
      "url": "https://dbs.wd3.myworkdayjobs.com/en-US/DBS_Careers/job/Kwun-Tong/Senior-Vice-President--Head-of-Cash-Operations--Institution-Banking-Group-Operations_WD85559",
      "city": "Hong Kong",
      "state": null,
      "country": "Hong Kong",
      "last_seen_at": "2026-06-12T17:37:59.000+00:00",
      "posted_at": "2026-06-11T22:00:00.000+00:00"
    },
    {
      "id": "6a2cce3b236006000128ee9b",
      "title": "AVP / Senior Associate, Innovation Analyst, Transformation and Data, Group COO",
      "url": "https://dbs.wd3.myworkdayjobs.com/en-US/DBS_Careers/job/Singapore---West/AVP---Senior-Associate--Innovation-Analyst--Transformation-and-Data--Group-COO_WD85556",
      "city": "Singapore",
      "state": "Singapore",
      "country": "Singapore",
      "last_seen_at": "2026-06-12T18:17:27.000+00:00",
      "posted_at": "2026-06-11T22:00:00.000+00:00"
    },
    {
      "id": "6a2cdd8f5a261a00013319b8",
      "title": "Treasures ARM, Consumer Banking Group",
      "url": "https://dbs.wd3.myworkdayjobs.com/en-US/DBS_Careers/job/One-Island-East/Treasures-ARM--Consumer-Banking-Group_WD85226",
      "city": "Hong Kong",
      "state": null,
      "country": "Hong Kong",
      "last_seen_at": "2026-06-12T18:14:35.000+00:00",
      "posted_at": "2026-06-11T22:00:00.000+00:00"
    },
    {
      "id": "6a2ccb8a7b50b60001769bb2",
      "title": "VP, Specialist, Project Management",
      "url": "https://dbs.wd3.myworkdayjobs.com/en-US/DBS_Careers/job/Taipei/VP--Specialist--Project-Management_WD85575",
      "city": "Taipei",
      "state": "New Taipei City",
      "country": "Taiwan",
      "last_seen_at": "2026-06-12T18:13:39.000+00:00",
      "posted_at": "2026-06-11T22:00:00.000+00:00"
    },
    {
      "id": "6a2ccd69777199000113b3d9",
      "title": "AVP, Credit Analysis, Corporate Banking, Institutional Banking Group",
      "url": "https://dbs.wd3.myworkdayjobs.com/en-US/DBS_Careers/job/Taipei/AVP--Credit-Analysis--Corporate-Banking--Institutional-Banking-Group_WD85569-1",
      "city": "Taipei",
      "state": "New Taipei City",
      "country": "Taiwan",
      "last_seen_at": "2026-06-12T18:18:10.000+00:00",
      "posted_at": "2026-06-11T22:00:00.000+00:00"
    },
    {
      "id": "6a2cd6575c40f00001562607",
      "title": "Analyst, Area Sales Manager, Consumer Banking Group",
      "url": "https://dbs.wd3.myworkdayjobs.com/en-US/DBS_Careers/job/Vishakapatnam/Analyst--Area-Sales-Manager--Consumer-Banking-Group_WD85566",
      "city": null,
      "state": null,
      "country": "India",
      "last_seen_at": "2026-06-12T18:14:09.000+00:00",
      "posted_at": "2026-06-11T22:00:00.000+00:00"
    },
    {
      "id": "6a2b8de9b086cb00013b64e9",
      "title": "Officer, Branch Relationship Manager, Consumer Banking Group",
      "url": "https://dbs.wd3.myworkdayjobs.com/en-US/DBS_Careers/job/Tirupur/Officer--Branch-Relationship-Manager--Consumer-Banking-Group_WD85358",
      "city": null,
      "state": null,
      "country": "India",
      "last_seen_at": "2026-06-12T17:38:12.000+00:00",
      "posted_at": "2026-06-10T22:00:00.000+00:00"
    },
    {
      "id": "6a2b80a4e47b5a00016862ab",
      "title": "Senior Officer, Area Sales Manager, Consumer Banking Group",
      "url": "https://dbs.wd3.myworkdayjobs.com/en-US/DBS_Careers/job/Tanjore/Senior-Officer--Area-Sales-Manager--Consumer-Banking-Group_WD85164",
      "city": "Thanjavur",
      "state": "Tamil Nadu",
      "country": "India",
      "last_seen_at": "2026-06-12T17:38:12.000+00:00",
      "posted_at": "2026-06-10T22:00:00.000+00:00"
    },
    {
      "id": "6a2b7775b086cb00013af09a",
      "title": "Senior Officer, Area Sales Manager, Consumer Banking Group",
      "url": "https://dbs.wd3.myworkdayjobs.com/en-US/DBS_Careers/job/Karaikudi/Senior-Officer--Area-Sales-Manager--Consumer-Banking-Group_WD85434",
      "city": null,
      "state": null,
      "country": "India",
      "last_seen_at": "2026-06-12T17:38:02.000+00:00",
      "posted_at": "2026-06-10T22:00:00.000+00:00"
    },
    {
      "id": "6a2b8338542dd10001cdd131",
      "title": "AVP, Team Lead, Business Development, GlobeSend, Global Transaction Services",
      "url": "https://dbs.wd3.myworkdayjobs.com/en-US/DBS_Careers/job/Taipei/AVP--Team-Lead--Business-Development--GlobeSend--Global-Transaction-Services_WD85497",
      "city": "Taipei",
      "state": "New Taipei City",
      "country": "Taiwan",
      "last_seen_at": "2026-06-12T17:38:02.000+00:00",
      "posted_at": "2026-06-10T22:00:00.000+00:00"
    }
  ],
  "pagination": {
    "page": 1,
    "per_page": 25,
    "total_entries": 1004,
    "total_pages": 41
  }
}