{
  "organization_job_postings": [
    {
      "id": "6a2cca9a236006000128c84f",
      "title": "WEB Business Analyst",
      "url": "https://digitalcareers.infosys.com/global-careers/company-job/description/reqid/149268BR",
      "city": "Bucharest",
      "state": "Bucharest",
      "country": "Romania",
      "last_seen_at": "2026-06-12T19:45:22.000+00:00",
      "posted_at": "2026-06-12T19:20:10.000+00:00"
    },
    {
      "id": "6a2cd575c7e3ba000139f964",
      "title": "IT Consultant - CYBER-SEC - Frankfurt, Germany",
      "url": "https://digitalcareers.infosys.com/global-careers/company-job/description/reqid/149316BR",
      "city": "Frankfurt",
      "state": "Hesse",
      "country": "Germany",
      "last_seen_at": "2026-06-12T19:44:54.000+00:00",
      "posted_at": "2026-06-12T19:20:10.000+00:00"
    },
    {
      "id": "6a2ccec67b50b6000176c839",
      "title": "Network Support Lead",
      "url": "https://digitalcareers.infosys.com/global-careers/company-job/description/reqid/149331BR",
      "city": "Sydney",
      "state": "New South Wales",
      "country": "Australia",
      "last_seen_at": "2026-06-12T19:45:10.000+00:00",
      "posted_at": "2026-06-12T19:18:10.000+00:00"
    },
    {
      "id": "6a2cdc9cdc87f200019706bf",
      "title": "Senior Client Partner, Media & Entertainment",
      "url": "https://digitalcareers.infosys.com/global-careers/company-job/description/reqid/149350BR",
      "city": "Los Angeles",
      "state": "California",
      "country": "United States",
      "last_seen_at": "2026-06-12T19:49:14.000+00:00",
      "posted_at": "2026-06-12T19:18:10.000+00:00"
    },
    {
      "id": "6a2ccc6f7b50b6000176a828",
      "title": "Process Specialist ( Bi Lingual Spanish Speaking)",
      "url": "https://digitalcareers.infosys.com/global-careers/company-job/description/reqid/149344BR",
      "city": "Atlanta",
      "state": "Georgia",
      "country": "United States",
      "last_seen_at": "2026-06-12T19:45:03.000+00:00",
      "posted_at": "2026-06-12T19:18:10.000+00:00"
    },
    {
      "id": "6a2cd9c8dc87f2000196ea82",
      "title": "AI Architect - GenAI / Agentic Systems - Financial Services - Infosys Consulting",
      "url": "https://digitalcareers.infosys.com/global-careers/company-job/description/reqid/149345BR",
      "city": "Fair Lawn",
      "state": "New Jersey",
      "country": "United States",
      "last_seen_at": "2026-06-12T19:44:05.000+00:00",
      "posted_at": "2026-06-12T19:18:10.000+00:00"
    },
    {
      "id": "6a2cdcfc3889980001d2ea4b",
      "title": "Client Partner HiTech",
      "url": "https://digitalcareers.infosys.com/global-careers/company-job/description/reqid/149349BR",
      "city": "San Francisco",
      "state": "California",
      "country": "United States",
      "last_seen_at": "2026-06-12T19:45:46.000+00:00",
      "posted_at": "2026-06-12T19:18:10.000+00:00"
    },
    {
      "id": "6a2cdbc1a8bd690001cbec72",
      "title": "Java Full Stack Architect with AI",
      "url": "https://digitalcareers.infosys.com/global-careers/company-job/description/reqid/149343BR",
      "city": "Charlotte",
      "state": "North Carolina",
      "country": "United States",
      "last_seen_at": "2026-06-12T19:45:04.000+00:00",
      "posted_at": "2026-06-12T19:18:10.000+00:00"
    },
    {
      "id": "6a2cc962ea416100010e17c0",
      "title": "SAP Security Consultant",
      "url": "https://digitalcareers.infosys.com/global-careers/company-job/description/reqid/149191BR",
      "city": "Indianapolis",
      "state": "Indiana",
      "country": "United States",
      "last_seen_at": "2026-06-12T19:44:12.000+00:00",
      "posted_at": "2026-06-12T19:18:10.000+00:00"
    },
    {
      "id": "6a2cd90b151e3c0001bedc25",
      "title": "SAP MM Consultant",
      "url": "https://digitalcareers.infosys.com/global-careers/company-job/description/reqid/149104BR",
      "city": "Miami",
      "state": "Florida",
      "country": "United States",
      "last_seen_at": "2026-06-12T19:44:28.000+00:00",
      "posted_at": "2026-06-12T19:18:10.000+00:00"
    },
    {
      "id": "6a2cd4d22360060001293178",
      "title": "Principal SAP SAC Planning Consultant",
      "url": "https://digitalcareers.infosys.com/global-careers/company-job/description/reqid/149100BR",
      "city": "Charlotte",
      "state": "North Carolina",
      "country": "United States",
      "last_seen_at": "2026-06-12T19:44:10.000+00:00",
      "posted_at": "2026-06-12T19:18:10.000+00:00"
    },
    {
      "id": "6a2cd5be2360060001293abb",
      "title": "Senior Consultant",
      "url": "https://digitalcareers.infosys.com/global-careers/company-job/description/reqid/148911BR",
      "city": "Calgary",
      "state": "Alberta",
      "country": "Canada",
      "last_seen_at": "2026-06-12T19:44:35.000+00:00",
      "posted_at": "2026-06-12T19:18:10.000+00:00"
    },
    {
      "id": "6a2cca8ae6eb9100019a5476",
      "title": "Technology Analyst - Azure DevOps",
      "url": "https://digitalcareers.infosys.com/global-careers/company-job/description/reqid/149299BR",
      "city": "Mississauga",
      "state": "Ontario",
      "country": "Canada",
      "last_seen_at": "2026-06-12T19:43:35.000+00:00",
      "posted_at": "2026-06-12T19:18:10.000+00:00"
    },
    {
      "id": "6a2cde26dc87f20001971706",
      "title": "SAP ABAP Consultant - (m/w/d)",
      "url": "https://digitalcareers.infosys.com/global-careers/company-job/description/reqid/148668BR",
      "city": "Berlin",
      "state": "Berlin",
      "country": "Germany",
      "last_seen_at": "2026-06-12T19:44:58.000+00:00",
      "posted_at": "2026-06-12T19:18:10.000+00:00"
    },
    {
      "id": "6a2cc95ac7e3ba0001396dac",
      "title": "Senior Consultant-BACS Payments, Service Monitoring-UK",
      "url": "https://digitalcareers.infosys.com/global-careers/company-job/description/reqid/149326BR",
      "city": "London",
      "state": "England",
      "country": "United Kingdom",
      "last_seen_at": "2026-06-12T19:45:42.000+00:00",
      "posted_at": "2026-06-12T19:18:10.000+00:00"
    },
    {
      "id": "6a2cd5d27b50b6000177211d",
      "title": "AI Engineer",
      "url": "https://digitalcareers.infosys.com/global-careers/company-job/description/reqid/149269BR",
      "city": "Bucharest",
      "state": "Bucharest",
      "country": "Romania",
      "last_seen_at": "2026-06-12T19:45:39.000+00:00",
      "posted_at": "2026-06-12T19:18:10.000+00:00"
    },
    {
      "id": "6a2cd10937ba390001c4d4fa",
      "title": "Quality Engineer",
      "url": "https://digitalcareers.infosys.com/global-careers/company-job/description/reqid/149297BR",
      "city": "Lafayette",
      "state": "Indiana",
      "country": "United States",
      "last_seen_at": "2026-06-12T19:45:08.000+00:00",
      "posted_at": "2026-06-12T19:18:10.000+00:00"
    },
    {
      "id": "6a2cca60c7e3ba0001397b7f",
      "title": "Consultant- Organization Change Management, Workforce Transformation",
      "url": "https://digitalcareers.infosys.com/global-careers/company-job/description/reqid/149234BR",
      "city": "Fair Lawn",
      "state": "New Jersey",
      "country": "United States",
      "last_seen_at": "2026-06-12T19:44:34.000+00:00",
      "posted_at": "2026-06-12T19:18:10.000+00:00"
    },
    {
      "id": "6a2cd29b37ba390001c4e82d",
      "title": "Release - Agile Scrum Coach",
      "url": "https://digitalcareers.infosys.com/global-careers/company-job/description/reqid/149310BR",
      "city": "Charlotte",
      "state": "North Carolina",
      "country": "United States",
      "last_seen_at": "2026-06-12T19:49:30.000+00:00",
      "posted_at": "2026-06-12T19:18:10.000+00:00"
    },
    {
      "id": "6a2ccb107b50b60001769597",
      "title": "Lead Consultant-BACS Payments, Service Monitoring-UK",
      "url": "https://digitalcareers.infosys.com/global-careers/company-job/description/reqid/149327BR",
      "city": "London",
      "state": "England",
      "country": "United Kingdom",
      "last_seen_at": "2026-06-12T19:44:41.000+00:00",
      "posted_at": "2026-06-12T19:18:10.000+00:00"
    },
    {
      "id": "6a2cd45a7771990001140a10",
      "title": "Senior Process Executive - St-Nazaire - FRABPM",
      "url": "https://digitalcareers.infosys.com/global-careers/company-job/description/reqid/131854BR",
      "city": "Toulouse",
      "state": "Occitanie",
      "country": "France",
      "last_seen_at": "2026-06-12T19:45:43.000+00:00",
      "posted_at": "2026-06-12T19:18:10.000+00:00"
    },
    {
      "id": "6a2cd1f53c48dc0001d602c3",
      "title": "Azure Databricks Engineer",
      "url": "https://digitalcareers.infosys.com/global-careers/company-job/description/reqid/149279BR",
      "city": "Ann Arbor",
      "state": "Michigan",
      "country": "United States",
      "last_seen_at": "2026-06-12T19:44:29.000+00:00",
      "posted_at": "2026-06-12T19:18:10.000+00:00"
    },
    {
      "id": "6a2ccfb33c48dc0001d5e800",
      "title": "procurement specialist",
      "url": "https://digitalcareers.infosys.com/global-careers/company-job/description/reqid/149322BR",
      "city": "La Rochelle",
      "state": "Nouvelle-Aquitaine",
      "country": "France",
      "last_seen_at": "2026-06-12T19:45:00.000+00:00",
      "posted_at": "2026-06-12T19:18:10.000+00:00"
    },
    {
      "id": "6a2cdf3db9743a00016728ee",
      "title": "Quality Engineer",
      "url": "https://digitalcareers.infosys.com/global-careers/company-job/description/reqid/149298BR",
      "city": "Lafayette",
      "state": "Indiana",
      "country": "United States",
      "last_seen_at": "2026-06-12T19:48:40.000+00:00",
      "posted_at": "2026-06-12T19:18:10.000+00:00"
    },
    {
      "id": "6a2cd2b3777199000113f581",
      "title": "Associate Manager - Client Services",
      "url": "https://digitalcareers.infosys.com/global-careers/company-job/description/reqid/149356BR",
      "city": "Dallas",
      "state": "Texas",
      "country": "United States",
      "last_seen_at": "2026-06-12T19:45:12.000+00:00",
      "posted_at": "2026-06-12T19:18:10.000+00:00"
    }
  ],
  "pagination": {
    "page": 1,
    "per_page": 25,
    "total_entries": 1848,
    "total_pages": 74
  }
}