{
  "organization_job_postings": [
    {
      "id": "6a2cd91f9094860001a4b94e",
      "title": "Alternance Technico-Commercial Sédentaire - Climatisation",
      "url": "https://sec.wd3.myworkdayjobs.com/en-US/Samsung_Careers/job/6-rue-Fructidor-Saint-Ouen-France/Alternance-Technico-Commercial-Sdentaire---Climatisation--H-F-_R117852?redirect=/Samsung_Careers/jobAlerts",
      "city": "La Rochelle",
      "state": "Nouvelle-Aquitaine",
      "country": "France",
      "last_seen_at": "2026-06-12T16:57:04.000+00:00",
      "posted_at": "2026-06-11T22:00:00.000+00:00"
    },
    {
      "id": "6a0bd35db581bd0001b91cb0",
      "title": "Senior HR Business Partner, Ads Product & Engineering",
      "url": "https://sec.wd3.myworkdayjobs.com/en-US/Samsung_Careers/job/645-Clyde-Avenue-Mountain-View-CA-USA/Senior-HR-Business-Partner--Ads-Product---Engineering_R117136-1",
      "city": "Mountain View",
      "state": "California",
      "country": "United States",
      "last_seen_at": "2026-06-12T16:55:36.000+00:00",
      "posted_at": "2026-06-11T22:00:00.000+00:00"
    },
    {
      "id": "6a2cd99911c3fc0001319f1b",
      "title": "Micro-architect/Logic Designer, Coherent Interconnect",
      "url": "https://sec.wd3.myworkdayjobs.com/en-US/Samsung_Careers/job/3655-N-1st-St-San-Jose-CA-USA/Micro-architect-Logic-Designer--Coherent-Interconnect_R117841",
      "city": "San Jose",
      "state": "California",
      "country": "United States",
      "last_seen_at": "2026-06-12T16:55:36.000+00:00",
      "posted_at": "2026-06-11T22:00:00.000+00:00"
    },
    {
      "id": "6a2cde335433bb00012d9acc",
      "title": "Senior Sales Manager, Growth",
      "url": "https://sec.wd3.myworkdayjobs.com/en-US/Samsung_Careers/job/6100-Center-Dr-6th-FL-Los-Angeles-CA-USA/Senior-Sales-Manager--Growth_R117813-1",
      "city": "Los Angeles",
      "state": "California",
      "country": "United States",
      "last_seen_at": "2026-06-12T16:55:36.000+00:00",
      "posted_at": "2026-06-11T22:00:00.000+00:00"
    },
    {
      "id": "6a2cd135e6eb9100019aa74e",
      "title": "Performance Architect",
      "url": "https://sec.wd3.myworkdayjobs.com/en-US/Samsung_Careers/job/3900-N-Capital-of-Texas-Hwy-Austin-TX-USA/Performance-Architect_R117840",
      "city": "Dallas",
      "state": "Texas",
      "country": "United States",
      "last_seen_at": "2026-06-12T16:55:36.000+00:00",
      "posted_at": "2026-06-11T22:00:00.000+00:00"
    },
    {
      "id": "6a2cd51eea416100010e6e08",
      "title": "HRBP Manager",
      "url": "https://sec.wd3.myworkdayjobs.com/en-US/Samsung_Careers/job/BITEXCO-Financial-Tower-Ho-Chi-Minh-Vietnam/HRBP-Manager_R117848",
      "city": null,
      "state": null,
      "country": "Vietnam",
      "last_seen_at": "2026-06-12T16:55:36.000+00:00",
      "posted_at": "2026-06-11T22:00:00.000+00:00"
    },
    {
      "id": "6a2cd0cde6eb9100019aa2a7",
      "title": "Automation Engineer - AMHS",
      "url": "https://sec.wd3.myworkdayjobs.com/en-US/Samsung_Careers/job/1530-FM-973-Taylor-TX-USA/Automation-Engineer---AMHS_R117834",
      "city": "Taylor",
      "state": "Texas",
      "country": "United States",
      "last_seen_at": "2026-06-12T16:55:36.000+00:00",
      "posted_at": "2026-06-11T22:00:00.000+00:00"
    },
    {
      "id": "6a2ccc27ea416100010e2e1f",
      "title": "Sales Innovation Director",
      "url": "https://sec.wd3.myworkdayjobs.com/en-US/Samsung_Careers/job/Samsung-House-2000-Hillswood-Drive-Chertsey-United-Kingdom/Sales-Innovation-Director_R117583-2?redirect=/Samsung_Careers/jobAlerts",
      "city": "Manchester",
      "state": "England",
      "country": "United Kingdom",
      "last_seen_at": "2026-06-12T16:57:52.000+00:00",
      "posted_at": "2026-06-11T22:00:00.000+00:00"
    },
    {
      "id": "6a2b7d7b90fe630001d9eeb6",
      "title": "Business Development Manager, Brand Memory (Singapore & Malaysia)",
      "url": "https://sec.wd3.myworkdayjobs.com/en-US/Samsung_Careers/job/Mapletree-Business-City-Singapore-Singapore/Business-Development-Manager--Brand-Memory--Singapore---Malaysia-_R117820-1",
      "city": "Singapore",
      "state": "Singapore",
      "country": "Singapore",
      "last_seen_at": "2026-06-12T17:01:02.000+00:00",
      "posted_at": "2026-06-10T22:00:00.000+00:00"
    },
    {
      "id": "6a2b80956c0ba90001e98594",
      "title": "Cleans Equipment Engineer - Nights",
      "url": "https://sec.wd3.myworkdayjobs.com/en-US/Samsung_Careers/job/1530-FM-973-Taylor-TX-USA/Cleans--Equipment-Engineer---Nights_R117839",
      "city": "Taylor",
      "state": "Texas",
      "country": "United States",
      "last_seen_at": "2026-06-12T16:55:36.000+00:00",
      "posted_at": "2026-06-10T22:00:00.000+00:00"
    },
    {
      "id": "6a2b8ccde47b5a000168a978",
      "title": "Careers @ SRI-B",
      "url": "https://sec.wd3.myworkdayjobs.com/en-US/Samsung_Careers/job/Careers---SRI-B_R114583",
      "city": "Bengaluru",
      "state": "Karnataka",
      "country": "India",
      "last_seen_at": "2026-06-12T04:46:51.000+00:00",
      "posted_at": "2026-06-10T22:00:00.000+00:00"
    },
    {
      "id": "6a2b7f3037d96b00018a9dde",
      "title": "Digital Marketing intern",
      "url": "https://sec.wd3.myworkdayjobs.com/en-US/Samsung_Careers/job/Lotissement-la-colline-2-Casablanca-Morocco/Digital-Marketing-intern_R117828",
      "city": "Casablanca",
      "state": "Casablanca-Settat",
      "country": "Morocco",
      "last_seen_at": "2026-06-12T04:46:51.000+00:00",
      "posted_at": "2026-06-10T22:00:00.000+00:00"
    },
    {
      "id": "6a2b83b0e47b5a00016874e9",
      "title": "Digital Marketing Intern",
      "url": "https://sec.wd3.myworkdayjobs.com/en-US/Samsung_Careers/job/Lotissement-la-colline-2-Casablanca-Morocco/Digital-Marketing-Intern_R117826",
      "city": "Casablanca",
      "state": "Casablanca-Settat",
      "country": "Morocco",
      "last_seen_at": "2026-06-12T04:46:51.000+00:00",
      "posted_at": "2026-06-10T22:00:00.000+00:00"
    },
    {
      "id": "6a2b848837d96b00018ab84f",
      "title": "Assistant Manager, Logistics MX Operation",
      "url": "https://sec.wd3.myworkdayjobs.com/en-US/Samsung_Careers/job/Empire-Tower-Bangkok-Thailand/Assistant-Manager--Logistics-MX-Operation_R117822",
      "city": "Bangkok",
      "state": "Bangkok",
      "country": "Thailand",
      "last_seen_at": "2026-06-12T17:01:02.000+00:00",
      "posted_at": "2026-06-10T22:00:00.000+00:00"
    },
    {
      "id": "69bb70267b5768000188f6d4",
      "title": "Procurement Buyer",
      "url": "https://sec.wd3.myworkdayjobs.com/en-US/Samsung_Careers/job/1530-FM-973-Taylor-TX-USA/Procurement-Buyer_R114421",
      "city": "Taylor",
      "state": "Texas",
      "country": "United States",
      "last_seen_at": "2026-06-12T17:01:02.000+00:00",
      "posted_at": "2026-06-10T22:00:00.000+00:00"
    },
    {
      "id": "6a2b84181b49ce000122e53b",
      "title": "Digital Specialist",
      "url": "https://sec.wd3.myworkdayjobs.com/en-US/Samsung_Careers/job/Radnika-cesta-Zagreb-Croatia/Digital-Specialist_R117825",
      "city": "Zagreb",
      "state": "City of Zagreb",
      "country": "Croatia",
      "last_seen_at": "2026-06-12T16:55:36.000+00:00",
      "posted_at": "2026-06-10T22:00:00.000+00:00"
    },
    {
      "id": "697c29362299d90001ac3468",
      "title": "key account manager",
      "url": "https://sec.wd3.myworkdayjobs.com/en-US/Samsung_Careers/job/6-rue-Fructidor-Saint-Ouen-France/Key-Account-Manager-Junior--H-F-_R113622?redirect=/Samsung_Careers/jobAlerts",
      "city": "La Rochelle",
      "state": "Nouvelle-Aquitaine",
      "country": "France",
      "last_seen_at": "2026-06-12T17:01:02.000+00:00",
      "posted_at": "2026-06-10T22:00:00.000+00:00"
    },
    {
      "id": "6a0d35a8d5303f0001c520b8",
      "title": "Alternance Responsable Partenariats EPP Junior",
      "url": "https://sec.wd3.myworkdayjobs.com/en-US/Samsung_Careers/job/6-rue-Fructidor-Saint-Ouen-France/Alternance-Responsable-Partenariats-EPP-Junior---H-F-_R117192?redirect=/Samsung_Careers/jobAlerts",
      "city": "La Rochelle",
      "state": "Nouvelle-Aquitaine",
      "country": "France",
      "last_seen_at": "2026-06-12T17:01:02.000+00:00",
      "posted_at": "2026-06-10T22:00:00.000+00:00"
    },
    {
      "id": "69cc96fd7e5270000130dd79",
      "title": "Senior Manager, Strategic Planning & Operations",
      "url": "https://sec.wd3.myworkdayjobs.com/en-US/Samsung_Careers/job/One-Pennsylvania-Plaza-26th-Floor-New-York-NY-USA/Senior-Manager--Strategic-Planning---Operations_R116023?redirect=/Samsung_Careers/jobAlerts",
      "city": "New York",
      "state": "New York",
      "country": "United States",
      "last_seen_at": "2026-06-12T16:55:36.000+00:00",
      "posted_at": "2026-06-10T22:00:00.000+00:00"
    },
    {
      "id": "6a2b774bffde050001a8748f",
      "title": "GCS Specialty Gas Team Lead",
      "url": "https://sec.wd3.myworkdayjobs.com/en-US/Samsung_Careers/job/1530-FM-973-Taylor-TX-USA/GCS-Specialty-Gas-Team-Lead_R117812",
      "city": "Taylor",
      "state": "Texas",
      "country": "United States",
      "last_seen_at": "2026-06-12T16:55:36.000+00:00",
      "posted_at": "2026-06-10T22:00:00.000+00:00"
    },
    {
      "id": "6a2a31a8e2d4350001161135",
      "title": "Senior Staff AI Software Engineer",
      "url": "https://semiconductor.samsung.com/about-us/careers/job-detail/?pageUrl=https://job-boards.greenhouse.io/samsungsemiconductor/jobs/7748861003&region=us",
      "city": "San Jose",
      "state": "California",
      "country": "United States",
      "last_seen_at": "2026-06-12T16:03:55.000+00:00",
      "posted_at": "2026-06-10T15:11:42.000+00:00"
    },
    {
      "id": "6a2a2f877a52b70001468f8a",
      "title": "Manufacturing Operation Technician",
      "url": "https://sec.wd3.myworkdayjobs.com/en-US/Samsung_Careers/job/1530-FM-973-Taylor-TX-USA/Manufacturing-Operation-Technician_R117679?redirect=/Samsung_Careers/jobAlerts",
      "city": "Taylor",
      "state": "Texas",
      "country": "United States",
      "last_seen_at": "2026-06-12T17:01:02.000+00:00",
      "posted_at": "2026-06-09T22:00:00.000+00:00"
    },
    {
      "id": "697041f7fb6a7e000101fe0f",
      "title": "Trainee Service Innovation Projects & Customer Experience",
      "url": "https://sec.wd3.myworkdayjobs.com/en-US/Samsung_Careers/job/Samsung-Space-Eschborn-Germany/Trainee--m-w-d--Service-Innovation-Projects---Customer-Experience_R113335",
      "city": "Berlin",
      "state": "Berlin",
      "country": "Germany",
      "last_seen_at": "2026-06-12T17:01:02.000+00:00",
      "posted_at": "2026-06-09T22:00:00.000+00:00"
    },
    {
      "id": "6a2a2f8dcd909e000158eb7b",
      "title": "Senior Sales Manager, Auto",
      "url": "https://sec.wd3.myworkdayjobs.com/en-US/Samsung_Careers/job/6100-Center-Dr-6th-FL-Los-Angeles-CA-USA/Sales-Manager--Auto_R115914-2?redirect=/Samsung_Careers/jobAlerts",
      "city": "Los Angeles",
      "state": "California",
      "country": "United States",
      "last_seen_at": "2026-06-12T07:06:14.000+00:00",
      "posted_at": "2026-06-09T22:00:00.000+00:00"
    },
    {
      "id": "6a2a2cb371aea40001ee0ae1",
      "title": "GCS Specialty Gas Team Lead",
      "url": "https://sec.wd3.myworkdayjobs.com/en-US/Samsung_Careers/job/1530-FM-973-Taylor-TX-USA/GCS-Specialty-Gas-Team-Lead_R117781?redirect=/Samsung_Careers/jobAlerts",
      "city": "Taylor",
      "state": "Texas",
      "country": "United States",
      "last_seen_at": "2026-06-12T17:01:03.000+00:00",
      "posted_at": "2026-06-09T22:00:00.000+00:00"
    }
  ],
  "pagination": {
    "page": 1,
    "per_page": 25,
    "total_entries": 545,
    "total_pages": 22
  }
}