{
  "organization_job_postings": [
    {
      "id": "6a2cce66236006000128f077",
      "title": "Retail Consultant, Springwood",
      "url": "https://groupcareers.singtel.com/job/Australia-Plains-Retail-Consultant%2C-Springwood-adve/1362722066",
      "city": null,
      "state": null,
      "country": "New Zealand",
      "last_seen_at": "2026-06-12T15:52:50.000+00:00",
      "posted_at": "2026-06-11T22:00:00.000+00:00"
    },
    {
      "id": "6a2cd629c7e3ba00013a0152",
      "title": "Lead Consultant",
      "url": "https://groupcareers.singtel.com/job/Lead-Consultant-Sing/1362762066",
      "city": "Singapore",
      "state": "Singapore",
      "country": "Singapore",
      "last_seen_at": "2026-06-12T16:29:53.000+00:00",
      "posted_at": "2026-06-11T22:00:00.000+00:00"
    },
    {
      "id": "6a2cd6a97771990001142483",
      "title": "Senior Technical Specialist",
      "url": "https://groupcareers.singtel.com/job/Macquarie-Park-Senior-Technical-Specialist-Macq/1362716866",
      "city": null,
      "state": null,
      "country": "New Zealand",
      "last_seen_at": "2026-06-12T15:52:50.000+00:00",
      "posted_at": "2026-06-11T22:00:00.000+00:00"
    },
    {
      "id": "6a2ccdaac7e3ba000139a2d3",
      "title": "Retail Consultant, Stafford",
      "url": "https://groupcareers.singtel.com/job/Brisbane-Retail-Consultant%2C-Stafford-Bris/1362727666",
      "city": "Brisbane",
      "state": "Queensland",
      "country": "Australia",
      "last_seen_at": "2026-06-12T15:52:50.000+00:00",
      "posted_at": "2026-06-11T22:00:00.000+00:00"
    },
    {
      "id": "6a2ccaac7b50b60001769096",
      "title": "Senior Director, Compliance Programs",
      "url": "https://groupcareers.singtel.com/job/Senior-Director%2C-Compliance-Programs-Sydn/1362735766",
      "city": "Sydney",
      "state": "New South Wales",
      "country": "Australia",
      "last_seen_at": "2026-06-12T16:30:06.000+00:00",
      "posted_at": "2026-06-11T22:00:00.000+00:00"
    },
    {
      "id": "6a2cd4247b50b60001770bb4",
      "title": "Resource & Security Officer",
      "url": "https://groupcareers.singtel.com/job/Macquarie-Park-Resource-&-Security-Officer-Macq/1362726266",
      "city": null,
      "state": null,
      "country": "New Zealand",
      "last_seen_at": "2026-06-12T15:52:50.000+00:00",
      "posted_at": "2026-06-11T22:00:00.000+00:00"
    },
    {
      "id": "6a2ccbda7b50b60001769f9b",
      "title": "Senior Director, Compliance Frameworks",
      "url": "https://groupcareers.singtel.com/job/Senior-Director%2C-Compliance-Frameworks-Sydn/1362735366",
      "city": "Sydney",
      "state": "New South Wales",
      "country": "Australia",
      "last_seen_at": "2026-06-12T16:29:44.000+00:00",
      "posted_at": "2026-06-11T22:00:00.000+00:00"
    },
    {
      "id": "6a2b8747542dd10001cddf9a",
      "title": "Retail Consultant, Toowoomba",
      "url": "https://groupcareers.singtel.com/job/Toowoomba-Retail-Consultant%2C-Toowoomba-Toow/1362679366",
      "city": "Toowoomba",
      "state": "Queensland",
      "country": "Australia",
      "last_seen_at": "2026-06-12T03:31:14.000+00:00",
      "posted_at": "2026-06-10T22:00:00.000+00:00"
    },
    {
      "id": "6a2b777effde050001a87569",
      "title": "Lead Software Engineer (Java Microservices, BSS/CPQ)",
      "url": "https://groupcareers.singtel.com/job/Lead-Software-Engineer-%28Java-Microservices%2C-BSSCPQ%29-Kual/1362676166",
      "city": "Kuala Lumpur",
      "state": "Federal Territory of Kuala Lumpur",
      "country": "Malaysia",
      "last_seen_at": "2026-06-11T15:49:30.000+00:00",
      "posted_at": "2026-06-10T22:00:00.000+00:00"
    },
    {
      "id": "6a2b8e9cb086cb00013b6892",
      "title": "Retail Consultant, Lake Haven",
      "url": "https://groupcareers.singtel.com/job/Australia-Plains-Retail-Consultant%2C-Lake-Haven-adve/1362681966",
      "city": null,
      "state": null,
      "country": "New Zealand",
      "last_seen_at": "2026-06-11T15:51:25.000+00:00",
      "posted_at": "2026-06-10T22:00:00.000+00:00"
    },
    {
      "id": "6a2b808c6c0ba90001e98562",
      "title": "Senior Software Engineer (Java Microservices, BSS/CPQ)",
      "url": "https://groupcareers.singtel.com/job/Senior-Software-Engineer-%28Java-Microservices%2C-BSSCPQ%29-Kual/1362678866",
      "city": "Kuala Lumpur",
      "state": "Federal Territory of Kuala Lumpur",
      "country": "Malaysia",
      "last_seen_at": "2026-06-11T15:51:11.000+00:00",
      "posted_at": "2026-06-10T22:00:00.000+00:00"
    },
    {
      "id": "6a2b79a1e47b5a00016837e8",
      "title": "Assistant Store Manager, Inala",
      "url": "https://groupcareers.singtel.com/job/Brisbane-Assistant-Store-Manager%2C-Inala-Bris/1362680166",
      "city": "Sydney",
      "state": "New South Wales",
      "country": "Australia",
      "last_seen_at": "2026-06-11T15:51:23.000+00:00",
      "posted_at": "2026-06-10T22:00:00.000+00:00"
    },
    {
      "id": "6a2b8af71b49ce0001230d96",
      "title": "Retail Consultant, Buddina",
      "url": "https://groupcareers.singtel.com/job/Buddina-Retail-Consultant%2C-Buddina-Budd/1362681666",
      "city": null,
      "state": null,
      "country": "New Zealand",
      "last_seen_at": "2026-06-12T03:31:14.000+00:00",
      "posted_at": "2026-06-10T22:00:00.000+00:00"
    },
    {
      "id": "6a2b8cc437d96b00018ae34c",
      "title": "Retail Consultant, Hurstville",
      "url": "https://groupcareers.singtel.com/job/Hurstville-Grove-Retail-Consultant%2C-Hurstville-Hurs/1362678266",
      "city": null,
      "state": null,
      "country": "New Zealand",
      "last_seen_at": "2026-06-12T03:31:14.000+00:00",
      "posted_at": "2026-06-10T22:00:00.000+00:00"
    },
    {
      "id": "6a2b7d846c0ba90001e97847",
      "title": "Retail Consultant, Newstead",
      "url": "https://groupcareers.singtel.com/job/Newstead-Retail-Consultant%2C-Newstead-News/1362665066",
      "city": null,
      "state": null,
      "country": "New Zealand",
      "last_seen_at": "2026-06-11T15:25:58.000+00:00",
      "posted_at": "2026-06-10T22:00:00.000+00:00"
    },
    {
      "id": "6a2b8042e47b5a000168608f",
      "title": "Retail Consultant, Victoria Point",
      "url": "https://groupcareers.singtel.com/job/Victoria-Point-Retail-Consultant%2C-Victoria-Point-Vict/1362665866",
      "city": "Perth",
      "state": "Western Australia",
      "country": "Australia",
      "last_seen_at": "2026-06-11T15:25:58.000+00:00",
      "posted_at": "2026-06-10T22:00:00.000+00:00"
    },
    {
      "id": "6a2b8e57542dd10001cdf841",
      "title": "Infrastructure Automation Engineer",
      "url": "https://groupcareers.singtel.com/job/Infrastructure-Automation-Engineer-Kual/1362697766",
      "city": "Kuala Lumpur",
      "state": "Federal Territory of Kuala Lumpur",
      "country": "Malaysia",
      "last_seen_at": "2026-06-11T15:51:14.000+00:00",
      "posted_at": "2026-06-10T22:00:00.000+00:00"
    },
    {
      "id": "6a2b82a537d96b00018aaebd",
      "title": "Digital eCommerce & Campaign Operations Intern #Generalinternship",
      "url": "https://groupcareers.singtel.com/job/Digital-eCommerce-&-Campaign-Operations-Intern-Generalinternship-Sing/1362700566",
      "city": "Singapore",
      "state": "Singapore",
      "country": "Singapore",
      "last_seen_at": "2026-06-11T15:51:24.000+00:00",
      "posted_at": "2026-06-10T22:00:00.000+00:00"
    },
    {
      "id": "6a2b8568542dd10001cdd886",
      "title": "Retail Consultant, Gympie",
      "url": "https://groupcareers.singtel.com/job/Gympie-South-Retail-Consultant%2C-Gympie-Gymp/1362680566",
      "city": null,
      "state": null,
      "country": "New Zealand",
      "last_seen_at": "2026-06-11T15:50:57.000+00:00",
      "posted_at": "2026-06-10T22:00:00.000+00:00"
    },
    {
      "id": "6a2b8a761b49ce0001230a96",
      "title": "Engineer, End User Services",
      "url": "https://groupcareers.singtel.com/job/Engineer%2C-End-User-Services-Kual/1362690666",
      "city": "Kuala Lumpur",
      "state": "Federal Territory of Kuala Lumpur",
      "country": "Malaysia",
      "last_seen_at": "2026-06-11T15:50:02.000+00:00",
      "posted_at": "2026-06-10T22:00:00.000+00:00"
    },
    {
      "id": "6a2a34a0af8a5c000191f68b",
      "title": "Manager, Digital Governance",
      "url": "https://groupcareers.singtel.com/job/Manager%2C-Digital-Governance-Sing/1362598366",
      "city": "Singapore",
      "state": "Singapore",
      "country": "Singapore",
      "last_seen_at": "2026-06-11T03:18:45.000+00:00",
      "posted_at": "2026-06-09T22:00:00.000+00:00"
    },
    {
      "id": "6a2a374fe4a0a10001a66dd3",
      "title": "Retail Consultant, Craigieburn",
      "url": "https://groupcareers.singtel.com/job/Craigieburn-Retail-Consultant%2C-Craigieburn-Crai/1362627266",
      "city": null,
      "state": null,
      "country": "New Zealand",
      "last_seen_at": "2026-06-12T15:53:30.000+00:00",
      "posted_at": "2026-06-09T22:00:00.000+00:00"
    },
    {
      "id": "6a2b7d650005190001330c0c",
      "title": "Retail Consultant, Orange",
      "url": "https://groupcareers.singtel.com/job/Australia-Plains-Retail-Consultant%2C-Orange-adve/1362649566",
      "city": "Brisbane",
      "state": "Queensland",
      "country": "Australia",
      "last_seen_at": "2026-06-11T03:51:12.000+00:00",
      "posted_at": "2026-06-09T22:00:00.000+00:00"
    },
    {
      "id": "6a2a3870af8a5c000191fe0a",
      "title": "Senior Business Risk Partner - Corporate",
      "url": "https://groupcareers.singtel.com/job/Senior-Business-Risk-Partner-Corporate-Sydn/1362607266",
      "city": "Sydney",
      "state": "New South Wales",
      "country": "Australia",
      "last_seen_at": "2026-06-12T15:53:56.000+00:00",
      "posted_at": "2026-06-09T22:00:00.000+00:00"
    },
    {
      "id": "6a2a30044da9d30001ecffb0",
      "title": "Retail Consultant, Eastlands",
      "url": "https://groupcareers.singtel.com/job/Rosny-Park-Retail-Consultant%2C-Eastlands-Rosn/1362629166",
      "city": null,
      "state": null,
      "country": "New Zealand",
      "last_seen_at": "2026-06-12T15:55:53.000+00:00",
      "posted_at": "2026-06-09T22:00:00.000+00:00"
    }
  ],
  "pagination": {
    "page": 1,
    "per_page": 25,
    "total_entries": 543,
    "total_pages": 22
  }
}