{
  "organization_job_postings": [
    {
      "id": "6a2b7ec890fe630001d9f515",
      "title": "marketing specialist",
      "url": "https://sonyglobal.wd1.myworkdayjobs.com/en-US/Sony_Europe_Careers/job/Hoofddorp/Channel-Marketing-Specialist_JR-119248",
      "city": "Amsterdam",
      "state": "North Holland",
      "country": "Netherlands",
      "last_seen_at": "2026-06-11T13:13:28.000+00:00",
      "posted_at": "2026-06-10T22:00:00.000+00:00"
    },
    {
      "id": "6a2a3272081cf50001441d82",
      "title": "marketplace manager",
      "url": "https://sonyglobal.wd1.myworkdayjobs.com/en-US/SonyGlobalCareers/job/Santa-Fe-CDMX-Mxico/Subgerente-Marketplace_JR-119242",
      "city": "Marion",
      "state": "Kentucky",
      "country": "United States",
      "last_seen_at": "2026-06-10T06:46:12.000+00:00",
      "posted_at": "2026-06-09T22:00:00.000+00:00"
    },
    {
      "id": "6a2a36f8af8a5c000191fadf",
      "title": "Manager, Deal Analysis",
      "url": "https://sonyglobal.wd1.myworkdayjobs.com/en-US/SonyGlobalCareers/job/New-York/Manager--Deal-Analysis_JR-119243-1",
      "city": "New York",
      "state": "New York",
      "country": "United States",
      "last_seen_at": "2026-06-12T06:52:27.000+00:00",
      "posted_at": "2026-06-09T22:00:00.000+00:00"
    },
    {
      "id": "6a2a2fe9e2d4350001160ce7",
      "title": "Sr Analyst, Royalty Administration",
      "url": "https://sonyglobal.wd1.myworkdayjobs.com/en-US/SonyGlobalCareers/job/NA--Nashville-17th-Ave-375/Sr-Analyst--Royalty-Administration_JR-119239",
      "city": "Monticello",
      "state": "Arkansas",
      "country": "United States",
      "last_seen_at": "2026-06-12T06:52:51.000+00:00",
      "posted_at": "2026-06-09T22:00:00.000+00:00"
    },
    {
      "id": "6a28d31319fcd30001924fda",
      "title": "Manager, eCommerce",
      "url": "https://www.linkedin.com/jobs/view/manager-ecommerce-at-sony-music-entertainment-4425875628",
      "city": "Nashville",
      "state": "Tennessee",
      "country": "United States",
      "last_seen_at": "2026-06-12T16:00:00.000+00:00",
      "posted_at": "2026-06-09T16:29:34.000+00:00"
    },
    {
      "id": "6a27ed3d5fc012000145021d",
      "title": "eCommerce Intern - Merchandise (6 month FTC)",
      "url": "https://uk.linkedin.com/jobs/view/ecommerce-intern-merchandise-6-month-ftc-at-sony-music-entertainment-4425287333",
      "city": "London",
      "state": "England",
      "country": "United Kingdom",
      "last_seen_at": "2026-06-12T16:00:00.000+00:00",
      "posted_at": "2026-06-08T15:25:44.000+00:00"
    },
    {
      "id": "6a279ce01118d30001beb736",
      "title": "Product Marketing Officer",
      "url": "https://sonyglobal.wd1.myworkdayjobs.com/en-US/SonyGlobalCareers/job/Bonifacio-Global-City/Product-Marketing-Officer_JR-119173",
      "city": "Taguig",
      "state": "Metro Manila",
      "country": "Philippines",
      "last_seen_at": "2026-06-12T02:05:20.000+00:00",
      "posted_at": "2026-06-07T22:00:00.000+00:00"
    },
    {
      "id": "6a2cdd855a261a0001331968",
      "title": "Publicist, Columbia UK",
      "url": "https://www.linkedin.com/jobs/view/4424595529/",
      "city": "London",
      "state": "England",
      "country": "United Kingdom",
      "last_seen_at": "2026-06-12T16:00:00.000+00:00",
      "posted_at": "2026-06-06T10:53:34.000+00:00"
    },
    {
      "id": "6a24f4048ab35c0001f0188f",
      "title": "Enterprise Product Lead",
      "url": "https://sonyglobal.wd1.myworkdayjobs.com/en-US/SonyGlobalCareers/job/New-York/Enterprise-Product-Lead_JR-119231",
      "city": "New York",
      "state": "New York",
      "country": "United States",
      "last_seen_at": "2026-06-12T01:53:32.000+00:00",
      "posted_at": "2026-06-05T22:00:00.000+00:00"
    },
    {
      "id": "6a24f5a33cf8bd00012e3cd0",
      "title": "Business Development Representative – Intern",
      "url": "https://sonyglobal.wd1.myworkdayjobs.com/en-US/SonyGlobalCareers/job/Malm/Business-Development-Representative---Intern_JR-119230-1",
      "city": "Malmoe",
      "state": "Skane County",
      "country": "Sweden",
      "last_seen_at": "2026-06-12T01:53:42.000+00:00",
      "posted_at": "2026-06-05T22:00:00.000+00:00"
    },
    {
      "id": "6a24e13f8ab35c0001eff6c8",
      "title": "Enterprise Product Lead",
      "url": "https://sonyglobal.wd1.myworkdayjobs.com/en-US/SonyGlobalCareers/job/NA--Nashville-17th-Ave-375/Enterprise-Product-Lead_JR-119232",
      "city": "Monticello",
      "state": "Arkansas",
      "country": "United States",
      "last_seen_at": "2026-06-12T01:53:05.000+00:00",
      "posted_at": "2026-06-05T22:00:00.000+00:00"
    },
    {
      "id": "6a2cd088c7e3ba000139c39b",
      "title": "Finance and Admin Coordinator",
      "url": "https://www.linkedin.com/jobs/view/4424457404/",
      "city": "Hanover",
      "state": "New Hampshire",
      "country": "United States",
      "last_seen_at": "2026-06-12T16:00:00.000+00:00",
      "posted_at": "2026-06-05T10:15:25.000+00:00"
    },
    {
      "id": "6a2291a1f62eaf0001910b62",
      "title": "E-commerce Specialist / Manager",
      "url": "https://au.linkedin.com/jobs/view/e-commerce-specialist-manager-at-sony-music-entertainment-4424515909",
      "city": "Sydney",
      "state": "New South Wales",
      "country": "Australia",
      "last_seen_at": "2026-06-11T16:00:00.000+00:00",
      "posted_at": "2026-06-05T06:07:25.000+00:00"
    },
    {
      "id": "6a2395e8e57fa100018944e0",
      "title": "PR & Influencer Specialist",
      "url": "https://sonyglobal.wd1.myworkdayjobs.com/en-US/SonyGlobalCareers/job/Barcelona/PR---Influencer-Specialist_JR-119215-1",
      "city": "Barcelona",
      "state": "Catalonia",
      "country": "Spain",
      "last_seen_at": "2026-06-11T02:07:26.000+00:00",
      "posted_at": "2026-06-04T22:00:00.000+00:00"
    },
    {
      "id": "6a239806dd4df80001bf1a36",
      "title": "Employment Counsel",
      "url": "https://sonyglobal.wd1.myworkdayjobs.com/en-US/SonyGlobalCareers/job/NA--Nashville-17th-Ave-375/Employment-Counsel_JR-119228",
      "city": "Monticello",
      "state": "Arkansas",
      "country": "United States",
      "last_seen_at": "2026-06-11T02:07:26.000+00:00",
      "posted_at": "2026-06-04T22:00:00.000+00:00"
    },
    {
      "id": "6a239c708cba4800015dfd51",
      "title": "Associate Director, Business & Legal Affairs",
      "url": "https://sonyglobal.wd1.myworkdayjobs.com/en-US/SonyGlobalCareers/job/NA--Hollywood-N-Orange-Dr-375/Associate-Director--Business---Legal-Affairs_JR-119226",
      "city": null,
      "state": "California",
      "country": "United States",
      "last_seen_at": "2026-06-11T02:07:26.000+00:00",
      "posted_at": "2026-06-04T22:00:00.000+00:00"
    },
    {
      "id": "6a23a053e989d00001586d4b",
      "title": "Facility Admin (Part-time; Fixed-term)",
      "url": "https://sonyglobal.wd1.myworkdayjobs.com/en-US/Sony_Europe_Careers/job/Hoofddorp/Facility-Admin--Part-time--Fixed-term-_JR-119229",
      "city": "Amsterdam",
      "state": "North Holland",
      "country": "Netherlands",
      "last_seen_at": "2026-06-11T13:34:51.000+00:00",
      "posted_at": "2026-06-04T22:00:00.000+00:00"
    },
    {
      "id": "6a239ce5027e1e0001486f2c",
      "title": "Employment Counsel",
      "url": "https://sonyglobal.wd1.myworkdayjobs.com/en-US/SonyGlobalCareers/job/New-York/Employment-Counsel_JR-119227",
      "city": "New York",
      "state": "New York",
      "country": "United States",
      "last_seen_at": "2026-06-11T02:07:26.000+00:00",
      "posted_at": "2026-06-04T22:00:00.000+00:00"
    },
    {
      "id": "6a22a3494c232600015b5043",
      "title": "Content Creator - AWAL",
      "url": "https://www.linkedin.com/jobs/view/content-creator-awal-at-sony-music-entertainment-4424462573",
      "city": "Los Angeles",
      "state": "California",
      "country": "United States",
      "last_seen_at": "2026-06-11T16:00:00.000+00:00",
      "posted_at": "2026-06-04T18:29:31.000+00:00"
    },
    {
      "id": "6a2cdc1b5a261a00013307d2",
      "title": "Executive Assistant (MD's Office)",
      "url": "https://www.linkedin.com/jobs/view/4424373578/",
      "city": "Mumbai",
      "state": "Maharashtra",
      "country": "India",
      "last_seen_at": "2026-06-11T16:00:00.000+00:00",
      "posted_at": "2026-06-04T16:35:00.000+00:00"
    },
    {
      "id": "6a2cdfad5a261a00013334db",
      "title": "A&R Manager",
      "url": "https://www.linkedin.com/jobs/view/4424371738/",
      "city": "Milan",
      "state": "Lombardy",
      "country": "Italy",
      "last_seen_at": "2026-06-11T16:00:00.000+00:00",
      "posted_at": "2026-06-04T15:30:16.000+00:00"
    },
    {
      "id": "6a224f678a67af0001719cd8",
      "title": "Intern, Security Architecture",
      "url": "https://sonyglobal.wd1.myworkdayjobs.com/en-US/SonyGlobalCareers/job/NA--Reston-375/Intern--Security-Architecture_JR-119219",
      "city": "Northern Cambria",
      "state": "Pennsylvania",
      "country": "United States",
      "last_seen_at": "2026-06-10T01:59:53.000+00:00",
      "posted_at": "2026-06-03T22:00:00.000+00:00"
    },
    {
      "id": "6a2252ecd919d50001a51350",
      "title": "Senior Manager, Media Strategy & Governance",
      "url": "https://sonyglobal.wd1.myworkdayjobs.com/en-US/SonyGlobalCareers/job/Weybridge/Senior-Manager--Media-Strategy---Governance_JR-119196-1",
      "city": "Manchester",
      "state": "England",
      "country": "United Kingdom",
      "last_seen_at": "2026-06-12T01:51:36.000+00:00",
      "posted_at": "2026-06-03T22:00:00.000+00:00"
    },
    {
      "id": "6a2242bb237fb10001e6d469",
      "title": "Business Planning Manager",
      "url": "https://sonyglobal.wd1.myworkdayjobs.com/en-US/SonyGlobalCareers/job/Weybridge/Business-Planning-Manager_JR-119216-1",
      "city": "Manchester",
      "state": "England",
      "country": "United Kingdom",
      "last_seen_at": "2026-06-12T01:54:33.000+00:00",
      "posted_at": "2026-06-03T22:00:00.000+00:00"
    },
    {
      "id": "6a2b8831b086cb00013b46c1",
      "title": "Manager, International Tax Compliance",
      "url": "https://sonyglobal.wd1.myworkdayjobs.com/en-US/SonyGlobalCareers/job/New-York/Manager--International-Tax-Compliance_JR-119114",
      "city": "New York",
      "state": "New York",
      "country": "United States",
      "last_seen_at": "2026-06-11T02:41:13.000+00:00",
      "posted_at": "2026-06-03T22:00:00.000+00:00"
    }
  ],
  "pagination": {
    "page": 1,
    "per_page": 25,
    "total_entries": 170,
    "total_pages": 7
  }
}