{
  "organization_job_postings": [
    {
      "id": "6a2cd5557771990001141559",
      "title": "Engineer-Automation Design (Marine)",
      "url": "https://careers.stengg.com/job/Marine-7-Benoi-Road-Engineer-Automation-Design-%28Marine%29/1362729566",
      "city": "Singapore",
      "state": "Singapore",
      "country": "Singapore",
      "last_seen_at": "2026-06-12T14:33:25.000+00:00",
      "posted_at": "2026-06-12T13:00:25.000+00:00"
    },
    {
      "id": "6a2cdbbbae3585000150e5fd",
      "title": "Technician - Composite",
      "url": "https://careers.stengg.com/job/Aero-507-Airport-Road-Technician-Composite/1362749866",
      "city": "Singapore",
      "state": "Singapore",
      "country": "Singapore",
      "last_seen_at": "2026-06-12T14:33:25.000+00:00",
      "posted_at": "2026-06-12T13:00:25.000+00:00"
    },
    {
      "id": "6a2cd9615a261a000132e60e",
      "title": "Project Engineer-Shipbuilding (Marine)",
      "url": "https://careers.stengg.com/job/Marine-7-Benoi-Road-Project-Engineer-Shipbuilding-%28Marine%29/1362760566",
      "city": "Singapore",
      "state": "Singapore",
      "country": "Singapore",
      "last_seen_at": "2026-06-12T14:33:25.000+00:00",
      "posted_at": "2026-06-12T13:00:25.000+00:00"
    },
    {
      "id": "6a2cc919236006000128b6b7",
      "title": "Assistant I, Stock Control",
      "url": "https://careers.stengg.com/job/Aero-8-Changi-North-Way-Assistant-I%2C-Stock-Control/1362741266",
      "city": "Singapore",
      "state": "Singapore",
      "country": "Singapore",
      "last_seen_at": "2026-06-12T14:33:25.000+00:00",
      "posted_at": "2026-06-12T13:00:25.000+00:00"
    },
    {
      "id": "6a2cd9979094860001a4bf94",
      "title": "Technical Presales Specialist",
      "url": "https://careers.stengg.com/job/Digital-Hub-Technical-Presales-Specialist/1361416466",
      "city": "Singapore",
      "state": "Singapore",
      "country": "Singapore",
      "last_seen_at": "2026-06-12T02:15:43.000+00:00",
      "posted_at": "2026-06-12T01:42:20.000+00:00"
    },
    {
      "id": "6a2ce03e11c3fc000131e958",
      "title": "Executive (Claim Assessor)",
      "url": "https://careers.stengg.com/job/Digital-Hub-Executive-%28Claim-Assessor%29/1361417566",
      "city": "Singapore",
      "state": "Singapore",
      "country": "Singapore",
      "last_seen_at": "2026-06-12T02:16:02.000+00:00",
      "posted_at": "2026-06-12T01:42:20.000+00:00"
    },
    {
      "id": "6a2b782f1b49ce000122a147",
      "title": "Senior Store Specialist",
      "url": "https://careers.stengg.com/job/Land-31-Harrison-Road-Senior-Store-Specialist/1362681266",
      "city": "Singapore",
      "state": "Singapore",
      "country": "Singapore",
      "last_seen_at": "2026-06-12T14:33:25.000+00:00",
      "posted_at": "2026-06-11T12:53:00.000+00:00"
    },
    {
      "id": "6a2b7bb8e47b5a0001684476",
      "title": "Unreal Developer",
      "url": "https://careers.stengg.com/job/Defence-Technology-Towers-Unreal-Developer/1362686766",
      "city": "Singapore",
      "state": "Singapore",
      "country": "Singapore",
      "last_seen_at": "2026-06-12T14:33:25.000+00:00",
      "posted_at": "2026-06-11T12:53:00.000+00:00"
    },
    {
      "id": "6a2b8713b086cb00013b4135",
      "title": "Assistant Engineer, Piping-Benoi",
      "url": "https://careers.stengg.com/job/Marine-7-Benoi-Road-Assistant-Engineer%2C-Piping-Benoi/1362691766",
      "city": "Singapore",
      "state": "Singapore",
      "country": "Singapore",
      "last_seen_at": "2026-06-12T14:33:25.000+00:00",
      "posted_at": "2026-06-11T12:53:00.000+00:00"
    },
    {
      "id": "6a2b8db1542dd10001cdf5e6",
      "title": "Engineer",
      "url": "https://careers.stengg.com/job/ST-Engineering-Hub-Engineer/1362689166",
      "city": "Singapore",
      "state": "Singapore",
      "country": "Singapore",
      "last_seen_at": "2026-06-12T14:33:25.000+00:00",
      "posted_at": "2026-06-11T12:53:00.000+00:00"
    },
    {
      "id": "6a2b79101b49ce000122a683",
      "title": "Senior Engineer, QA Commissioning, Marine Systems-Benoi",
      "url": "https://careers.stengg.com/job/Marine-7-Benoi-Road-Senior-Engineer%2C-QA-Commissioning%2C-Marine-Systems-Benoi/1362688966",
      "city": "Singapore",
      "state": "Singapore",
      "country": "Singapore",
      "last_seen_at": "2026-06-12T14:33:25.000+00:00",
      "posted_at": "2026-06-11T12:53:00.000+00:00"
    },
    {
      "id": "6a2a3842fbbe3b0001436c69",
      "title": "Service Desk Engineer",
      "url": "https://careers.stengg.com/job/ST-Engineering-Hub-Service-Desk-Engineer/1362621166",
      "city": "Singapore",
      "state": "Singapore",
      "country": "Singapore",
      "last_seen_at": "2026-06-12T13:54:28.000+00:00",
      "posted_at": "2026-06-10T13:02:30.000+00:00"
    },
    {
      "id": "6a2a366ab4db5d0001523437",
      "title": "Assistant, QC",
      "url": "https://careers.stengg.com/job/ST-Engineering-Hub-Assistant%2C-QC/1362634066",
      "city": "Singapore",
      "state": "Singapore",
      "country": "Singapore",
      "last_seen_at": "2026-06-12T13:54:41.000+00:00",
      "posted_at": "2026-06-10T13:02:30.000+00:00"
    },
    {
      "id": "6a2a2c8a7a52b7000146898c",
      "title": "Senior Manager",
      "url": "https://careers.stengg.com/job/Digital-Hub-Senior-Manager/1362620266",
      "city": "Singapore",
      "state": "Singapore",
      "country": "Singapore",
      "last_seen_at": "2026-06-12T13:54:26.000+00:00",
      "posted_at": "2026-06-10T13:02:30.000+00:00"
    },
    {
      "id": "6a2a29ae7b9fa90001b9cc06",
      "title": "AVP, Planning & Control",
      "url": "https://careers.stengg.com/job/Marine-7-Benoi-Road-AVP%2C-Planning-&-Control/1362627466",
      "city": "Singapore",
      "state": "Singapore",
      "country": "Singapore",
      "last_seen_at": "2026-06-12T13:54:52.000+00:00",
      "posted_at": "2026-06-10T13:02:30.000+00:00"
    },
    {
      "id": "6a2a31364da9d30001ed01f2",
      "title": "Deputy Director / Director, International Business",
      "url": "https://careers.stengg.com/job/Aero-507-Airport-Road-Deputy-Director-Director%2C-International-Business/1362623966",
      "city": "Singapore",
      "state": "Singapore",
      "country": "Singapore",
      "last_seen_at": "2026-06-12T13:54:04.000+00:00",
      "posted_at": "2026-06-10T13:02:30.000+00:00"
    },
    {
      "id": "6a2a2e28c229a60001b7023c",
      "title": "Project Manager-Ship Repairs (Benoi)",
      "url": "https://careers.stengg.com/job/Marine-7-Benoi-Road-Project-Manager-Ship-Repairs-%28Benoi%29/1362629966",
      "city": "Singapore",
      "state": "Singapore",
      "country": "Singapore",
      "last_seen_at": "2026-06-12T13:54:20.000+00:00",
      "posted_at": "2026-06-10T13:02:30.000+00:00"
    },
    {
      "id": "6a2a325871aea40001ee1f40",
      "title": "Assistant EHS Officer- Marine (Changi)",
      "url": "https://careers.stengg.com/job/Marine-7-Benoi-Road-Assistant-EHS-Officer-Marine-%28Changi%29/1362635766",
      "city": "Singapore",
      "state": "Singapore",
      "country": "Singapore",
      "last_seen_at": "2026-06-12T13:54:33.000+00:00",
      "posted_at": "2026-06-10T13:02:30.000+00:00"
    },
    {
      "id": "6a2a2eccc229a60001b703bf",
      "title": "Senior Aviation Vehicle Specialist",
      "url": "https://careers.stengg.com/job/Aero-507-Airport-Road-Senior-Aviation-Vehicle-Specialist/1362596966",
      "city": "Singapore",
      "state": "Singapore",
      "country": "Singapore",
      "last_seen_at": "2026-06-12T13:54:46.000+00:00",
      "posted_at": "2026-06-10T13:02:30.000+00:00"
    },
    {
      "id": "6a2a359de5ab0e0001061ec6",
      "title": "Engineer, AI Developer/AI Platform",
      "url": "https://careers.stengg.com/job/Aero-507-Airport-Road-Engineer%2C-AI-DeveloperAI-Platform/1362601266",
      "city": "Singapore",
      "state": "Singapore",
      "country": "Singapore",
      "last_seen_at": "2026-06-12T13:55:08.000+00:00",
      "posted_at": "2026-06-10T13:02:30.000+00:00"
    },
    {
      "id": "6a2a317271aea40001ee1baa",
      "title": "Maintenance, Repair & Overhaul Technician (2 years contract)",
      "url": "https://careers.stengg.com/job/Land-249-Jalan-Boon-Lay-Maintenance%2C-Repair-&-Overhaul-Technician-%282-years-contract%29/1362599566",
      "city": "Singapore",
      "state": "Singapore",
      "country": "Singapore",
      "last_seen_at": "2026-06-12T13:54:41.000+00:00",
      "posted_at": "2026-06-10T13:02:30.000+00:00"
    },
    {
      "id": "6a2a286b71aea40001edfc99",
      "title": "CREW CHIEF",
      "url": "https://careers.stengg.us/job/Pensacola-CREW-CHIEF-FL-32504/1394769500",
      "city": "Eastern",
      "state": "Kentucky",
      "country": "United States",
      "last_seen_at": "2026-06-12T09:28:53.000+00:00",
      "posted_at": "2026-06-10T08:25:57.000+00:00"
    },
    {
      "id": "6a2a2e087a52b70001468cbe",
      "title": "Senior Technician, Sheetmetal",
      "url": "https://careers.stengg.com/job/Aero-507-Airport-Road-Senior-Technician%2C-Sheetmetal/1362591166",
      "city": "Singapore",
      "state": "Singapore",
      "country": "Singapore",
      "last_seen_at": "2026-06-12T06:53:10.000+00:00",
      "posted_at": "2026-06-10T01:45:13.000+00:00"
    },
    {
      "id": "6a2a3504e5ab0e0001061c17",
      "title": "Senior / Engineer, Projects",
      "url": "https://careers.stengg.com/job/ST-Engineering-Jurong-East-Bui-Senior-Engineer%2C-Projects/1362571166",
      "city": null,
      "state": null,
      "country": "China",
      "last_seen_at": "2026-06-12T06:46:31.000+00:00",
      "posted_at": "2026-06-10T01:06:52.000+00:00"
    },
    {
      "id": "6a2a31a34da9d30001ed02bf",
      "title": "Senior / FPGA Engineer",
      "url": "https://careers.stengg.com/job/ST-Engineering-Jurong-East-Bui-Senior-FPGA-Engineer/1362571066",
      "city": null,
      "state": null,
      "country": "China",
      "last_seen_at": "2026-06-12T06:47:10.000+00:00",
      "posted_at": "2026-06-10T01:06:52.000+00:00"
    }
  ],
  "pagination": {
    "page": 1,
    "per_page": 25,
    "total_entries": 436,
    "total_pages": 18
  }
}