{
  "organization_job_postings": [
    {
      "id": "6a249e2646185800016ea970",
      "title": "Engineer - Electronic Systems R&D (Circuitry)",
      "url": "https://www.linkedin.com/jobs/view/engineer-electronic-systems-r-d-circuitry-at-toyota-north-america-4424642924",
      "city": "Saline",
      "state": "Michigan",
      "country": "United States",
      "last_seen_at": "2026-06-12T16:00:00.000+00:00",
      "posted_at": "2026-06-06T13:30:10.000+00:00"
    },
    {
      "id": "6a2ccc36c7e3ba000139916e",
      "title": "Battery Production Engineer, Battery Electric Vehicle (BEV)",
      "url": "https://www.linkedin.com/jobs/view/4424606829/",
      "city": "Liberty",
      "state": "North Carolina",
      "country": "United States",
      "last_seen_at": "2026-06-11T16:00:00.000+00:00",
      "posted_at": "2026-06-05T18:48:07.000+00:00"
    },
    {
      "id": "6a22a5366df3dc0001a985eb",
      "title": "Administrator",
      "url": "https://www.linkedin.com/jobs/view/administrator-at-toyota-north-america-4423583458",
      "city": "Georgetown",
      "state": "Kentucky",
      "country": "United States",
      "last_seen_at": "2026-06-11T16:00:00.000+00:00",
      "posted_at": "2026-06-04T21:18:15.000+00:00"
    },
    {
      "id": "6a2b8b5f37d96b00018adbaf",
      "title": "Electrical Engineer",
      "url": "https://www.linkedin.com/jobs/view/4422623532/",
      "city": "Georgetown",
      "state": "Kentucky",
      "country": "United States",
      "last_seen_at": "2026-06-11T16:00:00.000+00:00",
      "posted_at": "2026-06-03T18:24:31.000+00:00"
    },
    {
      "id": "6a1f6f0a86b3720001640f99",
      "title": "Regulatory Examination Manager",
      "url": "https://www.linkedin.com/jobs/view/regulatory-examination-manager-at-toyota-north-america-4423984488",
      "city": "Henderson",
      "state": "Nevada",
      "country": "United States",
      "last_seen_at": "2026-06-11T16:00:00.000+00:00",
      "posted_at": "2026-06-03T16:17:25.000+00:00"
    },
    {
      "id": "6a1fc96b47df9400016475ed",
      "title": "Manager, Corporate Development",
      "url": "https://www.linkedin.com/jobs/view/manager-corporate-development-at-toyota-north-america-4423991176",
      "city": "Plano",
      "state": "Texas",
      "country": "United States",
      "last_seen_at": "2026-06-11T16:00:00.000+00:00",
      "posted_at": "2026-06-03T15:32:33.000+00:00"
    },
    {
      "id": "6a20481d1f08140001c8c223",
      "title": "Training Content Creator",
      "url": "https://www.linkedin.com/jobs/view/training-content-creator-at-toyota-north-america-4422607714",
      "city": "Georgetown",
      "state": "Kentucky",
      "country": "United States",
      "last_seen_at": "2026-06-11T16:00:00.000+00:00",
      "posted_at": "2026-06-03T15:20:20.000+00:00"
    },
    {
      "id": "6a20f40e664e5200013b5cdd",
      "title": "Engineer - Environmental",
      "url": "https://www.linkedin.com/jobs/view/4424011871/",
      "city": "Princeton",
      "state": "Indiana",
      "country": "United States",
      "last_seen_at": "2026-06-11T10:00:00.000+00:00",
      "posted_at": "2026-06-03T00:47:49.000+00:00"
    },
    {
      "id": "6a2104757c72000001725348",
      "title": "Customer First Administrator",
      "url": "https://www.linkedin.com/jobs/view/4422621589/",
      "city": "Irvine",
      "state": "California",
      "country": "United States",
      "last_seen_at": "2026-06-12T22:00:00.000+00:00",
      "posted_at": "2026-06-02T21:11:59.000+00:00"
    },
    {
      "id": "6a2b8763f4aa79000198b96d",
      "title": "Paint Seibi Technician",
      "url": "https://www.linkedin.com/jobs/view/4422605722/",
      "city": "Princeton",
      "state": "Indiana",
      "country": "United States",
      "last_seen_at": "2026-06-11T16:00:00.000+00:00",
      "posted_at": "2026-06-02T20:55:36.000+00:00"
    },
    {
      "id": "6a2cd7c3151e3c0001becc75",
      "title": "Transportation Quality Claims Analyst",
      "url": "https://www.linkedin.com/jobs/view/4423990372/",
      "city": "Plano",
      "state": "Texas",
      "country": "United States",
      "last_seen_at": "2026-06-11T16:00:00.000+00:00",
      "posted_at": "2026-06-02T20:02:15.000+00:00"
    },
    {
      "id": "6a2b79636c0ba90001e96467",
      "title": "Production Engineer (Oracle/Snowflake/Python)",
      "url": "https://www.linkedin.com/jobs/view/4423977608/",
      "city": "Plano",
      "state": "Texas",
      "country": "United States",
      "last_seen_at": "2026-06-11T16:00:00.000+00:00",
      "posted_at": "2026-06-02T19:45:19.000+00:00"
    },
    {
      "id": "6a2cd69a0eab0c00011b4675",
      "title": "Consultant, Treasury Systems",
      "url": "https://www.linkedin.com/jobs/view/4423973740/",
      "city": "Plano",
      "state": "Texas",
      "country": "United States",
      "last_seen_at": "2026-06-11T16:00:00.000+00:00",
      "posted_at": "2026-06-02T19:43:35.000+00:00"
    },
    {
      "id": "6a2cd7f2dc87f2000196d9ea",
      "title": "Automation Engineer Technician Lead (Seibi)",
      "url": "https://www.linkedin.com/jobs/view/4423987474/",
      "city": "Liberty",
      "state": "North Carolina",
      "country": "United States",
      "last_seen_at": "2026-06-11T16:00:00.000+00:00",
      "posted_at": "2026-06-02T19:39:29.000+00:00"
    },
    {
      "id": "6a2ccb80ea416100010e28ae",
      "title": "Purchasing Supplier Development Engineer",
      "url": "https://www.linkedin.com/jobs/view/4423990373/",
      "city": "Saline",
      "state": "Michigan",
      "country": "United States",
      "last_seen_at": "2026-06-11T16:00:00.000+00:00",
      "posted_at": "2026-06-02T19:32:58.000+00:00"
    },
    {
      "id": "6a1fa249deca060001209802",
      "title": "CDL A Driver - Delivery Specialist - Portland OR",
      "url": "https://www.linkedin.com/jobs/view/cdl-a-driver-delivery-specialist-portland-or-at-toyota-north-america-4423971775",
      "city": "Portland",
      "state": "Oregon",
      "country": "United States",
      "last_seen_at": "2026-06-11T16:00:00.000+00:00",
      "posted_at": "2026-06-02T19:27:06.000+00:00"
    },
    {
      "id": "6a2cd0c57b50b6000176e15d",
      "title": "Senior Case Manager – Global Compliance",
      "url": "https://www.linkedin.com/jobs/view/4423973741/",
      "city": "Plano",
      "state": "Texas",
      "country": "United States",
      "last_seen_at": "2026-06-11T16:00:00.000+00:00",
      "posted_at": "2026-06-02T19:21:07.000+00:00"
    },
    {
      "id": "6a20f37b5be73000015d2399",
      "title": "Collections Supervisor",
      "url": "https://www.linkedin.com/jobs/view/4423983505/",
      "city": "San Juan",
      "state": "San Juan",
      "country": "Puerto Rico",
      "last_seen_at": "2026-06-12T22:00:00.000+00:00",
      "posted_at": "2026-06-02T18:47:59.000+00:00"
    },
    {
      "id": "6a2ccd2837ba390001c4a7e1",
      "title": "CDL A Driver - Delivery Specialist",
      "url": "https://www.linkedin.com/jobs/view/4423410637/",
      "city": "Benicia",
      "state": "California",
      "country": "United States",
      "last_seen_at": "2026-06-11T16:00:00.000+00:00",
      "posted_at": "2026-06-02T13:59:59.000+00:00"
    },
    {
      "id": "6a2b84b0f4aa79000198ac8e",
      "title": "Senior Analyst – CCL - Advanced Technology Strategy",
      "url": "https://www.linkedin.com/jobs/view/4423406616/",
      "city": "Plano",
      "state": "Texas",
      "country": "United States",
      "last_seen_at": "2026-06-11T16:00:00.000+00:00",
      "posted_at": "2026-06-02T13:59:47.000+00:00"
    },
    {
      "id": "6a20f95ba53f910001390ff6",
      "title": "Sr. Engineer - Production Engineering (Facility Projects)",
      "url": "https://www.linkedin.com/jobs/view/4423406618/",
      "city": "Georgetown",
      "state": "Kentucky",
      "country": "United States",
      "last_seen_at": "2026-06-11T10:00:00.000+00:00",
      "posted_at": "2026-06-02T01:45:49.000+00:00"
    },
    {
      "id": "6a20f0bcfdfd3700017e774a",
      "title": "Engineer - Battery",
      "url": "https://www.linkedin.com/jobs/view/4423258894/",
      "city": "Liberty",
      "state": "North Carolina",
      "country": "United States",
      "last_seen_at": "2026-06-11T10:00:00.000+00:00",
      "posted_at": "2026-06-01T19:42:38.000+00:00"
    },
    {
      "id": "6a2cd8a3151e3c0001bed68e",
      "title": "Lead Data Platform Engineer, Snowflake",
      "url": "https://www.linkedin.com/jobs/view/4422067998/",
      "city": "Plano",
      "state": "Texas",
      "country": "United States",
      "last_seen_at": "2026-06-11T16:00:00.000+00:00",
      "posted_at": "2026-05-30T14:01:18.000+00:00"
    },
    {
      "id": "6a2cddb7a8bd690001cc04af",
      "title": "Controls Engineer - Off Shift",
      "url": "https://www.linkedin.com/jobs/view/4422058360/",
      "city": "Liberty",
      "state": "North Carolina",
      "country": "United States",
      "last_seen_at": "2026-06-11T16:00:00.000+00:00",
      "posted_at": "2026-05-30T13:49:44.000+00:00"
    },
    {
      "id": "6a20f46c8f55190001372f84",
      "title": "Retirement Manager",
      "url": "https://www.linkedin.com/jobs/view/4422049534/",
      "city": "Plano",
      "state": "Texas",
      "country": "United States",
      "last_seen_at": "2026-06-11T10:00:00.000+00:00",
      "posted_at": "2026-05-30T09:15:49.000+00:00"
    }
  ],
  "pagination": {
    "page": 1,
    "per_page": 25,
    "total_entries": 136,
    "total_pages": 6
  }
}