{
  "organization_job_postings": [
    {
      "id": "6a2cdc065a261a00013306c2",
      "title": "Senior Production Support Engineer - IDM Engineering",
      "url": "https://uobgroup.wd3.myworkdayjobs.com/en-US/UOBExternal/job/The-Gardens-North-Tower/Senior-Production-Support-Engineer---IDM-Engineering_JR68757-1",
      "city": "Kuala Lumpur",
      "state": "Federal Territory of Kuala Lumpur",
      "country": "Malaysia",
      "last_seen_at": "2026-06-12T17:49:00.000+00:00",
      "posted_at": "2026-06-11T22:00:00.000+00:00"
    },
    {
      "id": "6a2ccdb4ea416100010e39e0",
      "title": "HR Information System Specialist",
      "url": "https://uobgroup.wd3.myworkdayjobs.com/en-US/UOBExternal/job/Jakarta-Pusat-City-Area/HR-Information-System-Specialist_JR89000",
      "city": "Jakarta",
      "state": "Jakarta",
      "country": "Indonesia",
      "last_seen_at": "2026-06-12T17:48:44.000+00:00",
      "posted_at": "2026-06-11T22:00:00.000+00:00"
    },
    {
      "id": "6a2cdc9da8bd690001cbf768",
      "title": "AML/CFT & Sanction Policy (GRIT Traineeship)",
      "url": "https://uobgroup.wd3.myworkdayjobs.com/en-US/UOBExternal/job/Central-Region-City-Area/AML-CFT---Sanction-Policy--GRIT-Traineeship-_JR88054",
      "city": "Singapore",
      "state": "Singapore",
      "country": "Singapore",
      "last_seen_at": "2026-06-12T17:17:38.000+00:00",
      "posted_at": "2026-06-11T22:00:00.000+00:00"
    },
    {
      "id": "6a2cdbf43889980001d2df7d",
      "title": "VP, Relationship Manager - Industry Group (Construction and Infrastructure), Group Commercial Banking",
      "url": "https://uobgroup.wd3.myworkdayjobs.com/en-US/UOBExternal/job/Central-Region-City-Area/Relationship-Manager_JR89018",
      "city": "Singapore",
      "state": "Singapore",
      "country": "Singapore",
      "last_seen_at": "2026-06-12T17:49:19.000+00:00",
      "posted_at": "2026-06-11T22:00:00.000+00:00"
    },
    {
      "id": "6a2cc982ea416100010e1902",
      "title": "VP2-PB COO",
      "url": "https://uobgroup.wd3.myworkdayjobs.com/en-US/UOBExternal/job/Central-Region-City-Area/VP2-PB-COO_JR88693",
      "city": "Central",
      "state": "Louisiana",
      "country": "United States",
      "last_seen_at": "2026-06-12T17:12:29.000+00:00",
      "posted_at": "2026-06-11T22:00:00.000+00:00"
    },
    {
      "id": "6a2cdf5011c3fc000131de5b",
      "title": "Vice President, Trade Review Manager, Business Banking",
      "url": "https://uobgroup.wd3.myworkdayjobs.com/en-US/UOBExternal/job/Central-Region-City-Area/Vice-President--Trade-Review-Manager--Business-Banking_JR88414",
      "city": "Singapore",
      "state": "Singapore",
      "country": "Singapore",
      "last_seen_at": "2026-06-12T17:48:54.000+00:00",
      "posted_at": "2026-06-11T22:00:00.000+00:00"
    },
    {
      "id": "6a2cd62ce6eb9100019ae074",
      "title": "Fraud Authorization Officer",
      "url": "https://uobgroup.wd3.myworkdayjobs.com/en-US/UOBExternal/job/Ho-Chi-Minh-City-Area/Fraud-Authorization-Officer_JR88908",
      "city": null,
      "state": null,
      "country": "Vietnam",
      "last_seen_at": "2026-06-12T17:49:01.000+00:00",
      "posted_at": "2026-06-11T22:00:00.000+00:00"
    },
    {
      "id": "6a2cda9e9094860001a4cdb1",
      "title": "VP, Bancassurance Advisor, PFS",
      "url": "https://uobgroup.wd3.myworkdayjobs.com/en-US/UOBExternal/job/Bangsar-City-Area/VP--Bancassurance-Advisor--PFS_JR88527",
      "city": null,
      "state": null,
      "country": "Malaysia",
      "last_seen_at": "2026-06-12T17:48:20.000+00:00",
      "posted_at": "2026-06-11T22:00:00.000+00:00"
    },
    {
      "id": "6a2cca975c40f000015599e4",
      "title": "AVP (Sr Executive), Senior Test Analyst (Digital Banking), RORC",
      "url": "https://uobgroup.wd3.myworkdayjobs.com/en-US/UOBExternal/job/Kuala-Lumpur-City-Area/AVP--Sr-Executive---Senior-Test-Analyst--Digital-Banking---RORC_JR88500",
      "city": "Kuala Lumpur",
      "state": "Federal Territory of Kuala Lumpur",
      "country": "Malaysia",
      "last_seen_at": "2026-06-12T17:48:28.000+00:00",
      "posted_at": "2026-06-11T22:00:00.000+00:00"
    },
    {
      "id": "6a2ccee75c40f0000155d093",
      "title": "Fraud Data Analysis Reporting Senior Officer",
      "url": "https://uobgroup.wd3.myworkdayjobs.com/en-US/UOBExternal/job/Ho-Chi-Minh-City-Area/Fraud-Data-Analysis-Reporting-Senior-Officer_JR88120",
      "city": null,
      "state": null,
      "country": "Vietnam",
      "last_seen_at": "2026-06-12T17:52:50.000+00:00",
      "posted_at": "2026-06-11T22:00:00.000+00:00"
    },
    {
      "id": "6a2cce6c37ba390001c4b6f0",
      "title": "Credit Analyst",
      "url": "https://uobgroup.wd3.myworkdayjobs.com/en-US/UOBExternal/job/Ho-Chi-Minh-City-Area/Credit-Analyst_JR87216",
      "city": null,
      "state": null,
      "country": "Vietnam",
      "last_seen_at": "2026-06-12T17:48:34.000+00:00",
      "posted_at": "2026-06-11T22:00:00.000+00:00"
    },
    {
      "id": "6a2cdb01dc87f2000196f5fd",
      "title": "Wealth Advisor ​(Accelerator Programme for Experienced Sales Professionals)​",
      "url": "https://uobgroup.wd3.myworkdayjobs.com/en-US/UOBExternal/job/Kuala-Lumpur-City-Area/Wealth-Advisor---Accelerator-Programme-for-Experienced-Sales-Professionals--_JR88848-1",
      "city": "Kuala Lumpur",
      "state": "Federal Territory of Kuala Lumpur",
      "country": "Malaysia",
      "last_seen_at": "2026-06-12T17:48:35.000+00:00",
      "posted_at": "2026-06-11T22:00:00.000+00:00"
    },
    {
      "id": "6a2cdb935a261a00013300e4",
      "title": "CWM RM - Group 2",
      "url": "https://uobgroup.wd3.myworkdayjobs.com/en-US/UOBExternal/job/Jakarta-Pusat-City-Area/CWM-RM---Group-2_JR88655",
      "city": "Jakarta",
      "state": "Jakarta",
      "country": "Indonesia",
      "last_seen_at": "2026-06-12T17:49:34.000+00:00",
      "posted_at": "2026-06-11T22:00:00.000+00:00"
    },
    {
      "id": "6a2ccbea7771990001139fc8",
      "title": "AFC Sanctions GRIT Trainee",
      "url": "https://uobgroup.wd3.myworkdayjobs.com/en-US/UOBExternal/job/Central-Region-City-Area/AFC-Sanctions-GRIT-Trainee_JR88917",
      "city": "Singapore",
      "state": "Singapore",
      "country": "Singapore",
      "last_seen_at": "2026-06-12T17:17:38.000+00:00",
      "posted_at": "2026-06-11T22:00:00.000+00:00"
    },
    {
      "id": "6a2cd96cbac2cc0001463f24",
      "title": "Digital Platform Manager",
      "url": "https://uobgroup.wd3.myworkdayjobs.com/en-US/UOBExternal/job/Ho-Chi-Minh-City-Area/Digital-Platform-Manager_JR86412-1",
      "city": null,
      "state": null,
      "country": "Vietnam",
      "last_seen_at": "2026-06-12T17:49:02.000+00:00",
      "posted_at": "2026-06-11T22:00:00.000+00:00"
    },
    {
      "id": "6a2cdc485a261a0001330a2a",
      "title": "Outsource - Financial Controls & Operation",
      "url": "https://uobgroup.wd3.myworkdayjobs.com/en-US/UOBExternal/job/Bangkok-City-Area/Outsource---Financial-Controls---Operation_JR87604",
      "city": "Bangkok",
      "state": "Bangkok",
      "country": "Thailand",
      "last_seen_at": "2026-06-12T17:12:29.000+00:00",
      "posted_at": "2026-06-11T22:00:00.000+00:00"
    },
    {
      "id": "6a2cd3e37b50b60001770860",
      "title": "Team Leader, Credit Portfolio Management (Commercial Banking)",
      "url": "https://uobgroup.wd3.myworkdayjobs.com/en-US/UOBExternal/job/Kuala-Lumpur-City-Area/Team-Leader--Credit-Portfolio-Management--Commercial-Banking-_JR68321",
      "city": "Kuala Lumpur",
      "state": "Federal Territory of Kuala Lumpur",
      "country": "Malaysia",
      "last_seen_at": "2026-06-12T17:12:29.000+00:00",
      "posted_at": "2026-06-11T22:00:00.000+00:00"
    },
    {
      "id": "6a2cd59e77719900011418c0",
      "title": "Fraud Parameter Strategy Manager",
      "url": "https://uobgroup.wd3.myworkdayjobs.com/en-US/UOBExternal/job/Ho-Chi-Minh-City-Area/Fraud-Parameter-Strategy-Manager_JR88117",
      "city": "Ho Chi Minh City",
      "state": "Ho Chi Minh",
      "country": "Vietnam",
      "last_seen_at": "2026-06-12T17:49:13.000+00:00",
      "posted_at": "2026-06-11T22:00:00.000+00:00"
    },
    {
      "id": "6a2ccec4ea416100010e41f2",
      "title": "VP2, Senior Product Manager - Emerging Enterprise",
      "url": "https://uobgroup.wd3.myworkdayjobs.com/en-US/UOBExternal/job/Kuala-Lumpur-City-Area/VP2--Senior-Product-Manager---Emerging-Enterprise_JR88898",
      "city": "Kuala Lumpur",
      "state": "Federal Territory of Kuala Lumpur",
      "country": "Malaysia",
      "last_seen_at": "2026-06-12T17:17:38.000+00:00",
      "posted_at": "2026-06-11T22:00:00.000+00:00"
    },
    {
      "id": "6a2b88a990fe630001da2304",
      "title": "MGR, Credit Risk Analytics, Emerging Enterprise",
      "url": "https://uobgroup.wd3.myworkdayjobs.com/en-US/UOBExternal/job/Kuala-Lumpur-City-Area/MGR--Credit-Risk-Analytics--Emerging-Enterprise_JR86447",
      "city": "Kuala Lumpur",
      "state": "Federal Territory of Kuala Lumpur",
      "country": "Malaysia",
      "last_seen_at": "2026-06-12T17:17:38.000+00:00",
      "posted_at": "2026-06-10T22:00:00.000+00:00"
    },
    {
      "id": "6a2b8370b086cb00013b2da7",
      "title": "VP - Digital Engagement, Innovation Group",
      "url": "https://uobgroup.wd3.myworkdayjobs.com/en-US/UOBExternal/job/Central-Region-City-Area/VP---Digital-Engagement--Innovation-Group_JR88235-1",
      "city": "Central",
      "state": "Louisiana",
      "country": "United States",
      "last_seen_at": "2026-06-12T17:17:38.000+00:00",
      "posted_at": "2026-06-10T22:00:00.000+00:00"
    },
    {
      "id": "69798858af682c000120f2e1",
      "title": "Technical Delivery Manager, Credit & Customer Origination",
      "url": "https://uobgroup.wd3.myworkdayjobs.com/en-US/UOBExternal/job/The-Gardens-North-Tower/Technical-Delivery-Manager--Credit---Customer-Origination_JR77686",
      "city": "Kuala Lumpur",
      "state": "Federal Territory of Kuala Lumpur",
      "country": "Malaysia",
      "last_seen_at": "2026-06-12T17:17:43.000+00:00",
      "posted_at": "2026-06-10T22:00:00.000+00:00"
    },
    {
      "id": "696ef7dfdc4eea00015cbb80",
      "title": "AVP, Data Center Supervisor, Group Corporate Real Estate Services",
      "url": "https://uobgroup.wd3.myworkdayjobs.com/en-US/UOBExternal/job/Central-Region-City-Area/SO-AVP--Data-Center-Supervisor--Group-Corporate-Real-Estate-Services_JR67058",
      "city": "Singapore",
      "state": "Singapore",
      "country": "Singapore",
      "last_seen_at": "2026-06-12T17:17:43.000+00:00",
      "posted_at": "2026-06-10T22:00:00.000+00:00"
    },
    {
      "id": "6a2b788a90fe630001d9d96d",
      "title": "Mortgage Direct Specialist",
      "url": "https://uobgroup.wd3.myworkdayjobs.com/en-US/UOBExternal/job/Central-Region-City-Area/Mortgage-Direct-Specialist_JR88713",
      "city": "Central",
      "state": "Louisiana",
      "country": "United States",
      "last_seen_at": "2026-06-12T17:17:38.000+00:00",
      "posted_at": "2026-06-10T22:00:00.000+00:00"
    },
    {
      "id": "6a2b7d290005190001330ad5",
      "title": "Manager, System Support and Business Analyst, Group Portfolio Management",
      "url": "https://uobgroup.wd3.myworkdayjobs.com/en-US/UOBExternal/job/Central-Region-City-Area/Manager--System-Support-and-Business-Analyst--Group-Portfolio-Management_JR88740",
      "city": "Singapore",
      "state": "Singapore",
      "country": "Singapore",
      "last_seen_at": "2026-06-12T17:17:38.000+00:00",
      "posted_at": "2026-06-10T22:00:00.000+00:00"
    }
  ],
  "pagination": {
    "page": 1,
    "per_page": 25,
    "total_entries": 994,
    "total_pages": 40
  }
}